output/SIM.vcd
$date
	Wed Feb  7 22:18:18 2024
$end
$version
	Icarus Verilog
$end
$timescale
	1s
$end
$scope module pal_tb $end
$var wire 27 ! bitstream [26:0] $end
$var wire 1 " outputs_tb $end
$var parameter 32 # BITSTREAM_LEN $end
$var parameter 32 $ NUM_INPUTS $end
$var parameter 32 % NUM_INTERM_STAGES $end
$var parameter 32 & NUM_OUPUTS $end
$var reg 1 ' clk_pal_tb $end
$var reg 1 ( clk_tb $end
$var reg 1 ) config_tb $end
$var reg 4 * inputs_tb [3:0] $end
$var integer 32 + i [31:0] $end
$scope module uut $end
$var wire 1 ) CFG $end
$var wire 1 ' CLK $end
$var wire 4 , INPUT_VARS [3:0] $end
$var wire 1 - test_lol $end
$var wire 3 . or_results [2:0] $end
$var wire 24 / and_results [23:0] $end
$var wire 1 " OUTPUT_VALS $end
$var wire 3 0 INTERM_VARS [2:0] $end
$var wire 8 1 INPUT_VARS_N [7:0] $end
$var wire 3 2 FF_CHAIN_OR [2:0] $end
$var wire 24 3 FF_CHAIN_AND [23:0] $end
$var wire 27 4 FF_CHAIN [26:0] $end
$var parameter 32 5 FF_CHAIN_OR_BASE_INDEX $end
$var parameter 32 6 M $end
$var parameter 32 7 N $end
$var parameter 32 8 P $end
$var parameter 32 9 SR_LEN $end
$scope begin AND_GEN_LOOP_OUTER[0] $end
$var parameter 2 : p $end
$scope begin AND_GEN_LOOP_INNER[0] $end
$var parameter 2 ; n $end
$scope module cp $end
$var wire 1 < cfg_in $end
$var wire 1 = data_in $end
$var wire 1 > data_out $end
$upscope $end
$upscope $end
$scope begin AND_GEN_LOOP_INNER[1] $end
$var parameter 2 ? n $end
$scope module cp $end
$var wire 1 @ cfg_in $end
$var wire 1 A data_in $end
$var wire 1 B data_out $end
$upscope $end
$upscope $end
$scope begin AND_GEN_LOOP_INNER[2] $end
$var parameter 3 C n $end
$scope module cp $end
$var wire 1 D cfg_in $end
$var wire 1 E data_in $end
$var wire 1 F data_out $end
$upscope $end
$upscope $end
$scope begin AND_GEN_LOOP_INNER[3] $end
$var parameter 3 G n $end
$scope module cp $end
$var wire 1 H cfg_in $end
$var wire 1 I data_in $end
$var wire 1 J data_out $end
$upscope $end
$upscope $end
$scope begin AND_GEN_LOOP_INNER[4] $end
$var parameter 4 K n $end
$scope module cp $end
$var wire 1 L cfg_in $end
$var wire 1 M data_in $end
$var wire 1 N data_out $end
$upscope $end
$upscope $end
$scope begin AND_GEN_LOOP_INNER[5] $end
$var parameter 4 O n $end
$scope module cp $end
$var wire 1 P cfg_in $end
$var wire 1 Q data_in $end
$var wire 1 R data_out $end
$upscope $end
$upscope $end
$scope begin AND_GEN_LOOP_INNER[6] $end
$var parameter 4 S n $end
$scope module cp $end
$var wire 1 T cfg_in $end
$var wire 1 U data_in $end
$var wire 1 V data_out $end
$upscope $end
$upscope $end
$scope begin AND_GEN_LOOP_INNER[7] $end
$var parameter 4 W n $end
$scope module cp $end
$var wire 1 X cfg_in $end
$var wire 1 Y data_in $end
$var wire 1 Z data_out $end
$upscope $end
$upscope $end
$scope module reduce_and_I $end
$var wire 12 [ data_in [11:0] $end
$var wire 1 \ reduced_out $end
$var wire 2 ] data_stride [1:0] $end
$var parameter 64 ^ LEN $end
$var parameter 24 _ OPERATION $end
$var parameter 64 ` STRIDE $end
$scope begin genblk1 $end
$upscope $end
$scope module stride_I $end
$var wire 12 a in [11:0] $end
$var wire 2 b strided_out [1:0] $end
$var parameter 64 c LEN $end
$var parameter 64 d STRIDE $end
$scope begin REDUCE_LOOP[0] $end
$var parameter 2 e i $end
$scope begin genblk1 $end
$upscope $end
$upscope $end
$scope begin REDUCE_LOOP[1] $end
$var parameter 2 f i $end
$upscope $end
$scope begin REDUCE_LOOP[2] $end
$var parameter 3 g i $end
$upscope $end
$scope begin REDUCE_LOOP[3] $end
$var parameter 3 h i $end
$upscope $end
$scope begin REDUCE_LOOP[4] $end
$var parameter 4 i i $end
$upscope $end
$scope begin REDUCE_LOOP[5] $end
$var parameter 4 j i $end
$upscope $end
$scope begin REDUCE_LOOP[6] $end
$var parameter 4 k i $end
$scope begin genblk1 $end
$upscope $end
$upscope $end
$scope begin REDUCE_LOOP[7] $end
$var parameter 4 l i $end
$upscope $end
$scope begin REDUCE_LOOP[8] $end
$var parameter 5 m i $end
$upscope $end
$scope begin REDUCE_LOOP[9] $end
$var parameter 5 n i $end
$upscope $end
$scope begin REDUCE_LOOP[10] $end
$var parameter 5 o i $end
$upscope $end
$scope begin REDUCE_LOOP[11] $end
$var parameter 5 p i $end
$upscope $end
$upscope $end
$upscope $end
$upscope $end
$scope begin AND_GEN_LOOP_OUTER[1] $end
$var parameter 2 q p $end
$scope begin AND_GEN_LOOP_INNER[0] $end
$var parameter 2 r n $end
$scope module cp $end
$var wire 1 s cfg_in $end
$var wire 1 t data_in $end
$var wire 1 u data_out $end
$upscope $end
$upscope $end
$scope begin AND_GEN_LOOP_INNER[1] $end
$var parameter 2 v n $end
$scope module cp $end
$var wire 1 w cfg_in $end
$var wire 1 x data_in $end
$var wire 1 y data_out $end
$upscope $end
$upscope $end
$scope begin AND_GEN_LOOP_INNER[2] $end
$var parameter 3 z n $end
$scope module cp $end
$var wire 1 { cfg_in $end
$var wire 1 | data_in $end
$var wire 1 } data_out $end
$upscope $end
$upscope $end
$scope begin AND_GEN_LOOP_INNER[3] $end
$var parameter 3 ~ n $end
$scope module cp $end
$var wire 1 !" cfg_in $end
$var wire 1 "" data_in $end
$var wire 1 #" data_out $end
$upscope $end
$upscope $end
$scope begin AND_GEN_LOOP_INNER[4] $end
$var parameter 4 $" n $end
$scope module cp $end
$var wire 1 %" cfg_in $end
$var wire 1 &" data_in $end
$var wire 1 '" data_out $end
$upscope $end
$upscope $end
$scope begin AND_GEN_LOOP_INNER[5] $end
$var parameter 4 (" n $end
$scope module cp $end
$var wire 1 )" cfg_in $end
$var wire 1 *" data_in $end
$var wire 1 +" data_out $end
$upscope $end
$upscope $end
$scope begin AND_GEN_LOOP_INNER[6] $end
$var parameter 4 ," n $end
$scope module cp $end
$var wire 1 -" cfg_in $end
$var wire 1 ." data_in $end
$var wire 1 /" data_out $end
$upscope $end
$upscope $end
$scope begin AND_GEN_LOOP_INNER[7] $end
$var parameter 4 0" n $end
$scope module cp $end
$var wire 1 1" cfg_in $end
$var wire 1 2" data_in $end
$var wire 1 3" data_out $end
$upscope $end
$upscope $end
$scope module reduce_and_I $end
$var wire 12 4" data_in [11:0] $end
$var wire 1 5" reduced_out $end
$var wire 2 6" data_stride [1:0] $end
$var parameter 64 7" LEN $end
$var parameter 24 8" OPERATION $end
$var parameter 64 9" STRIDE $end
$scope begin genblk1 $end
$upscope $end
$scope module stride_I $end
$var wire 12 :" in [11:0] $end
$var wire 2 ;" strided_out [1:0] $end
$var parameter 64 <" LEN $end
$var parameter 64 =" STRIDE $end
$scope begin REDUCE_LOOP[0] $end
$var parameter 2 >" i $end
$scope begin genblk1 $end
$upscope $end
$upscope $end
$scope begin REDUCE_LOOP[1] $end
$var parameter 2 ?" i $end
$upscope $end
$scope begin REDUCE_LOOP[2] $end
$var parameter 3 @" i $end
$upscope $end
$scope begin REDUCE_LOOP[3] $end
$var parameter 3 A" i $end
$upscope $end
$scope begin REDUCE_LOOP[4] $end
$var parameter 4 B" i $end
$upscope $end
$scope begin REDUCE_LOOP[5] $end
$var parameter 4 C" i $end
$upscope $end
$scope begin REDUCE_LOOP[6] $end
$var parameter 4 D" i $end
$scope begin genblk1 $end
$upscope $end
$upscope $end
$scope begin REDUCE_LOOP[7] $end
$var parameter 4 E" i $end
$upscope $end
$scope begin REDUCE_LOOP[8] $end
$var parameter 5 F" i $end
$upscope $end
$scope begin REDUCE_LOOP[9] $end
$var parameter 5 G" i $end
$upscope $end
$scope begin REDUCE_LOOP[10] $end
$var parameter 5 H" i $end
$upscope $end
$scope begin REDUCE_LOOP[11] $end
$var parameter 5 I" i $end
$upscope $end
$upscope $end
$upscope $end
$upscope $end
$scope begin AND_GEN_LOOP_OUTER[2] $end
$var parameter 3 J" p $end
$scope begin AND_GEN_LOOP_INNER[0] $end
$var parameter 2 K" n $end
$scope module cp $end
$var wire 1 L" cfg_in $end
$var wire 1 M" data_in $end
$var wire 1 N" data_out $end
$upscope $end
$upscope $end
$scope begin AND_GEN_LOOP_INNER[1] $end
$var parameter 2 O" n $end
$scope module cp $end
$var wire 1 P" cfg_in $end
$var wire 1 Q" data_in $end
$var wire 1 R" data_out $end
$upscope $end
$upscope $end
$scope begin AND_GEN_LOOP_INNER[2] $end
$var parameter 3 S" n $end
$scope module cp $end
$var wire 1 T" cfg_in $end
$var wire 1 U" data_in $end
$var wire 1 V" data_out $end
$upscope $end
$upscope $end
$scope begin AND_GEN_LOOP_INNER[3] $end
$var parameter 3 W" n $end
$scope module cp $end
$var wire 1 X" cfg_in $end
$var wire 1 Y" data_in $end
$var wire 1 Z" data_out $end
$upscope $end
$upscope $end
$scope begin AND_GEN_LOOP_INNER[4] $end
$var parameter 4 [" n $end
$scope module cp $end
$var wire 1 \" cfg_in $end
$var wire 1 ]" data_in $end
$var wire 1 ^" data_out $end
$upscope $end
$upscope $end
$scope begin AND_GEN_LOOP_INNER[5] $end
$var parameter 4 _" n $end
$scope module cp $end
$var wire 1 `" cfg_in $end
$var wire 1 a" data_in $end
$var wire 1 b" data_out $end
$upscope $end
$upscope $end
$scope begin AND_GEN_LOOP_INNER[6] $end
$var parameter 4 c" n $end
$scope module cp $end
$var wire 1 d" cfg_in $end
$var wire 1 e" data_in $end
$var wire 1 f" data_out $end
$upscope $end
$upscope $end
$scope begin AND_GEN_LOOP_INNER[7] $end
$var parameter 4 g" n $end
$scope module cp $end
$var wire 1 h" cfg_in $end
$var wire 1 i" data_in $end
$var wire 1 j" data_out $end
$upscope $end
$upscope $end
$scope module reduce_and_I $end
$var wire 12 k" data_in [11:0] $end
$var wire 1 l" reduced_out $end
$var wire 2 m" data_stride [1:0] $end
$var parameter 64 n" LEN $end
$var parameter 24 o" OPERATION $end
$var parameter 64 p" STRIDE $end
$scope begin genblk1 $end
$upscope $end
$scope module stride_I $end
$var wire 12 q" in [11:0] $end
$var wire 2 r" strided_out [1:0] $end
$var parameter 64 s" LEN $end
$var parameter 64 t" STRIDE $end
$scope begin REDUCE_LOOP[0] $end
$var parameter 2 u" i $end
$scope begin genblk1 $end
$upscope $end
$upscope $end
$scope begin REDUCE_LOOP[1] $end
$var parameter 2 v" i $end
$upscope $end
$scope begin REDUCE_LOOP[2] $end
$var parameter 3 w" i $end
$upscope $end
$scope begin REDUCE_LOOP[3] $end
$var parameter 3 x" i $end
$upscope $end
$scope begin REDUCE_LOOP[4] $end
$var parameter 4 y" i $end
$upscope $end
$scope begin REDUCE_LOOP[5] $end
$var parameter 4 z" i $end
$upscope $end
$scope begin REDUCE_LOOP[6] $end
$var parameter 4 {" i $end
$scope begin genblk1 $end
$upscope $end
$upscope $end
$scope begin REDUCE_LOOP[7] $end
$var parameter 4 |" i $end
$upscope $end
$scope begin REDUCE_LOOP[8] $end
$var parameter 5 }" i $end
$upscope $end
$scope begin REDUCE_LOOP[9] $end
$var parameter 5 ~" i $end
$upscope $end
$scope begin REDUCE_LOOP[10] $end
$var parameter 5 !# i $end
$upscope $end
$scope begin REDUCE_LOOP[11] $end
$var parameter 5 "# i $end
$upscope $end
$upscope $end
$upscope $end
$upscope $end
$scope begin OR_GEN_LOOP_OUTER[0] $end
$var parameter 2 ## m $end
$scope begin OR_GEN_LOOP_INNER[0] $end
$var parameter 2 $# p $end
$scope module cp $end
$var wire 1 %# cfg_in $end
$var wire 1 &# data_in $end
$var wire 1 '# data_out $end
$upscope $end
$upscope $end
$scope begin OR_GEN_LOOP_INNER[1] $end
$var parameter 2 (# p $end
$scope module cp $end
$var wire 1 )# cfg_in $end
$var wire 1 *# data_in $end
$var wire 1 +# data_out $end
$upscope $end
$upscope $end
$scope begin OR_GEN_LOOP_INNER[2] $end
$var parameter 3 ,# p $end
$scope module cp $end
$var wire 1 -# cfg_in $end
$var wire 1 .# data_in $end
$var wire 1 /# data_out $end
$upscope $end
$upscope $end
$scope module reduce_and_I $end
$var wire 3 0# data_in [2:0] $end
$var wire 1 " reduced_out $end
$var wire 3 1# data_stride [2:0] $end
$var parameter 64 2# LEN $end
$var parameter 16 3# OPERATION $end
$var parameter 32 4# STRIDE $end
$scope begin genblk1 $end
$upscope $end
$scope module stride_I $end
$var wire 3 5# in [2:0] $end
$var wire 3 6# strided_out [2:0] $end
$var parameter 64 7# LEN $end
$var parameter 32 8# STRIDE $end
$scope begin REDUCE_LOOP[0] $end
$var parameter 2 9# i $end
$scope begin genblk1 $end
$upscope $end
$upscope $end
$scope begin REDUCE_LOOP[1] $end
$var parameter 2 :# i $end
$scope begin genblk1 $end
$upscope $end
$upscope $end
$scope begin REDUCE_LOOP[2] $end
$var parameter 3 ;# i $end
$scope begin genblk1 $end
$upscope $end
$upscope $end
$upscope $end
$upscope $end
$upscope $end
$scope begin genblk1[0] $end
$var parameter 2 <# n $end
$upscope $end
$scope begin genblk1[1] $end
$var parameter 2 =# n $end
$upscope $end
$scope begin genblk1[2] $end
$var parameter 3 ># n $end
$upscope $end
$scope begin genblk1[3] $end
$var parameter 3 ?# n $end
$upscope $end
$scope module sr $end
$var wire 1 ) CFG $end
$var wire 1 ' CLK $end
$var parameter 32 @# LEN $end
$var reg 27 A# FF_CHAIN [26:0] $end
$upscope $end
$upscope $end
$upscope $end
$enddefinitions $end
$comment Show the parameter values. $end
$dumpall
b11011 @#
b11 ?#
b10 >#
b1 =#
b0 <#
b10 ;#
b1 :#
b0 9#
b1 8#
b11 7#
b1 4#
b110111101110010 3#
b11 2#
b10 ,#
b1 (#
b0 $#
b0 ##
b1011 "#
b1010 !#
b1001 ~"
b1000 }"
b111 |"
b110 {"
b101 z"
b100 y"
b11 x"
b10 w"
b1 v"
b0 u"
b110 t"
b1100 s"
b110 p"
b11000010110111001100100 o"
b1100 n"
b111 g"
b110 c"
b101 _"
b100 ["
b11 W"
b10 S"
b1 O"
b0 K"
b10 J"
b1011 I"
b1010 H"
b1001 G"
b1000 F"
b111 E"
b110 D"
b101 C"
b100 B"
b11 A"
b10 @"
b1 ?"
b0 >"
b110 ="
b1100 <"
b110 9"
b11000010110111001100100 8"
b1100 7"
b111 0"
b110 ,"
b101 ("
b100 $"
b11 ~
b10 z
b1 v
b0 r
b1 q
b1011 p
b1010 o
b1001 n
b1000 m
b111 l
b110 k
b101 j
b100 i
b11 h
b10 g
b1 f
b0 e
b110 d
b1100 c
b110 `
b11000010110111001100100 _
b1100 ^
b111 W
b110 S
b101 O
b100 K
b11 G
b10 C
b1 ?
b0 ;
b0 :
b11011 9
b11 8
b100 7
b1 6
b11000 5
b1 &
b11 %
b100 $
b11011 #
$end
#0
$dumpvars
bx A#
bx 6#
bx 5#
bx 1#
bx 0#
x/#
x.#
x-#
x+#
x*#
x)#
x'#
x&#
x%#
bx r"
bx q"
bx m"
xl"
bx k"
xj"
xi"
xh"
xf"
xe"
xd"
xb"
xa"
x`"
x^"
x]"
x\"
xZ"
xY"
xX"
xV"
xU"
xT"
xR"
xQ"
xP"
xN"
xM"
xL"
bx ;"
bx :"
bx 6"
x5"
bx 4"
x3"
x2"
x1"
x/"
x."
x-"
x+"
x*"
x)"
x'"
x&"
x%"
x#"
x""
x!"
x}
x|
x{
xy
xx
xw
xu
xt
xs
bx b
bx a
bx ]
x\
bx [
xZ
xY
xX
xV
xU
xT
xR
xQ
xP
xN
xM
xL
xJ
xI
xH
xF
xE
xD
xB
xA
x@
x>
x=
x<
bx 4
bx 3
bx 2
bx 1
bx 0
bx /
bx .
0-
bx ,
bx +
bx *
x)
0(
0'
x"
b100000100000100000100000100 !
$end
#2
1(
#4
0(
#6
1(
#8
0(
#10
0"
b0 1#
b0 6#
0/#
0+#
b0 .
b0 0#
b0 5#
0'#
0.#
0*#
0&#
0l"
bx0 m"
bx0 r"
05"
bx0 6"
bx0 ;"
b0 0
0\
bx0 ]
bx0 b
bx0 k"
bx0 q"
bx0 4"
bx0 :"
bx0 [
bx0 a
bx0 /
0>
0<
bx0 3
bx0 4
bx0 A#
1(
1-
1'
0)
b0 +
#12
bx00 k"
bx00 q"
bx00 4"
bx00 :"
bx00 [
bx00 a
bx00 /
0u
0s
bx00 3
bx00 4
bx00 A#
0(
b1 +
1-
1'
#14
x"
bx 1#
bx 6#
x/#
x+#
bx .
bx 0#
bx 5#
x'#
x.#
x*#
x&#
xl"
bx m"
bx r"
x5"
bx 6"
bx ;"
bx 0
x\
bx ]
bx b
bx00x k"
bx00x q"
bx00x 4"
bx00x :"
bx00x [
bx00x a
0N"
bx00x /
x>
0L"
1<
bx001 3
bx001 4
bx001 A#
1(
1)
b10 +
1-
1'
#16
0"
b0 1#
b0 6#
0/#
0+#
b0 .
b0 0#
b0 5#
0'#
0.#
0*#
0&#
0l"
bx0 m"
bx0 r"
05"
bx0 6"
bx0 ;"
b0 0
0\
bx0 ]
bx0 b
bx00x0 k"
bx00x0 q"
bx00x0 4"
bx00x0 :"
bx00x0 [
bx00x0 a
xu
0B
bx00x0 /
0>
1s
0@
0<
bx0010 3
bx0010 4
bx0010 A#
0(
0)
b11 +
1-
1'
#18
bx00x00 k"
bx00x00 q"
bx00x00 4"
bx00x00 :"
bx00x00 [
bx00x00 a
xN"
0y
bx00x00 /
0u
1L"
0w
0s
bx00100 3
bx00100 4
bx00100 A#
1(
b100 +
1-
1'
#20
bx00x000 k"
bx00x000 q"
bx00x000 4"
bx00x000 :"
bx00x000 [
bx00x000 a
0R"
0N"
bx00x000 /
xB
0P"
0L"
1@
bx001000 3
bx001000 4
bx001000 A#
0(
b101 +
1-
1'
#22
b0 m"
b0 r"
b0 6"
b0 ;"
b0 ]
b0 b
bx00x0000 k"
bx00x0000 q"
bx00x0000 4"
bx00x0000 :"
bx00x0000 [
bx00x0000 a
xy
0F
bx00x0000 /
0B
1w
0D
0@
bx0010000 3
bx0010000 4
bx0010000 A#
1(
b110 +
1-
1'
#24
bx00x00000 k"
bx00x00000 q"
bx00x00000 4"
bx00x00000 :"
bx00x00000 [
bx00x00000 a
xR"
0}
bx00x00000 /
0y
1P"
0{
0w
bx00100000 3
bx00100000 4
bx00100000 A#
0(
b111 +
1-
1'
#26
x"
bx 1#
bx 6#
x/#
x+#
bx .
bx 0#
bx 5#
x'#
x.#
x*#
x&#
xl"
bx m"
bx r"
x5"
bx 6"
bx ;"
bx 0
x\
bx ]
bx b
bx00x00000x k"
bx00x00000x q"
bx00x00000x 4"
bx00x00000x :"
bx00x00000x [
bx00x00000x a
0V"
0R"
xF
bx00x00000x /
x>
0T"
0P"
1D
1<
bx001000001 3
bx001000001 4
bx001000001 A#
1(
1)
b1000 +
1-
1'
#28
0"
b0 1#
b0 6#
0/#
0+#
b0 .
b0 0#
b0 5#
0'#
0.#
0*#
0&#
0l"
b0 m"
b0 r"
05"
b0 6"
b0 ;"
b0 0
0\
b0 ]
b0 b
bx00x00000x0 k"
bx00x00000x0 q"
bx00x00000x0 4"
bx00x00000x0 :"
bx00x00000x0 [
bx00x00000x0 a
x}
xu
0J
0F
bx00x00000x0 /
0>
1{
1s
0H
0D
0<
bx0010000010 3
bx0010000010 4
bx0010000010 A#
0(
0)
b1001 +
1-
1'
#30
bx00x00000x00 k"
bx00x00000x00 q"
bx00x00000x00 4"
bx00x00000x00 :"
bx00x00000x00 [
bx00x00000x00 a
xV"
xN"
0#"
0}
bx00x00000x00 /
0u
1T"
1L"
0!"
0{
0s
bx00100000100 3
bx00100000100 4
bx00100000100 A#
1(
b1010 +
1-
1'
#32
b0x00000x000 k"
b0x00000x000 q"
b0x00000x000 4"
b0x00000x000 :"
b0x00000x000 [
b0x00000x000 a
0Z"
0V"
0N"
xJ
bx00x00000x000 /
xB
0X"
0T"
0L"
1H
1@
bx001000001000 3
bx001000001000 4
bx001000001000 A#
0(
b1011 +
1-
1'
#34
b0x00000x0000 k"
b0x00000x0000 q"
b0x00000x0000 4"
b0x00000x0000 :"
b0x00000x0000 [
b0x00000x0000 a
x#"
xy
0N
0J
bx00x00000x0000 /
0B
1!"
1w
0L
0H
0@
bx0010000010000 3
bx0010000010000 4
bx0010000010000 A#
1(
b1100 +
1-
1'
#36
bx00000x00000 k"
bx00000x00000 q"
bx00000x00000 4"
bx00000x00000 :"
bx00000x00000 [
bx00000x00000 a
xZ"
xR"
0'"
0#"
bx00x00000x00000 /
0y
1X"
1P"
0%"
0!"
0w
bx00100000100000 3
bx00100000100000 4
bx00100000100000 A#
0(
b1101 +
1-
1'
#38
x"
bx 1#
bx 6#
x/#
x+#
bx .
bx 0#
bx 5#
x'#
x.#
x*#
x&#
xl"
bx m"
bx r"
x5"
bx 6"
bx ;"
bx 0
x\
bx ]
bx b
b0x00000x k"
b0x00000x q"
b0x00000x 4"
b0x00000x :"
b0x00000x [
b0x00000x a
0^"
0Z"
0R"
xN
xF
bx00x00000x00000x /
x>
0\"
0X"
0P"
1L
1D
1<
bx001000001000001 3
bx001000001000001 4
bx001000001000001 A#
1(
1)
b1110 +
1-
1'
#40
0"
b0 1#
b0 6#
0/#
0+#
b0 .
b0 0#
b0 5#
0'#
0.#
0*#
0&#
0l"
b0 m"
b0 r"
05"
b0 6"
b0 ;"
b0 0
0\
b0 ]
b0 b
b0x00000x0 k"
b0x00000x0 q"
b0x00000x0 4"
b0x00000x0 :"
b0x00000x0 [
b0x00000x0 a
x'"
x}
xu
0R
0N
0F
bx00x00000x00000x0 /
0>
1%"
1{
1s
0P
0L
0D
0<
bx0010000010000010 3
bx0010000010000010 4
bx0010000010000010 A#
0(
0)
b1111 +
1-
1'
#42
b0x00000x00 k"
b0x00000x00 q"
b0x00000x00 4"
b0x00000x00 :"
b0x00000x00 [
b0x00000x00 a
x^"
xV"
xN"
0+"
0'"
0}
bx00x00000x00000x00 /
0u
1\"
1T"
1L"
0)"
0%"
0{
0s
bx00100000100000100 3
bx00100000100000100 4
bx00100000100000100 A#
1(
b10000 +
1-
1'
#44
b0x00000x000 k"
b0x00000x000 q"
b0x00000x000 4"
b0x00000x000 :"
b0x00000x000 [
b0x00000x000 a
0b"
0^"
0V"
0N"
xR
xJ
bx00x00000x00000x000 /
xB
0`"
0\"
0T"
0L"
1P
1H
1@
bx001000001000001000 3
bx001000001000001000 4
bx001000001000001000 A#
0(
b10001 +
1-
1'
#46
b0x00000x0000 k"
b0x00000x0000 q"
b0x00000x0000 4"
b0x00000x0000 :"
b0x00000x0000 [
b0x00000x0000 a
x+"
x#"
xy
0V
0R
0J
bx00x00000x00000x0000 /
0B
1)"
1!"
1w
0T
0P
0H
0@
bx0010000010000010000 3
bx0010000010000010000 4
bx0010000010000010000 A#
1(
b10010 +
1-
1'
#48
bx00000x00000 k"
bx00000x00000 q"
bx00000x00000 4"
bx00000x00000 :"
bx00000x00000 [
bx00000x00000 a
xb"
xZ"
xR"
0/"
0+"
0#"
bx00x00000x00000x00000 /
0y
1`"
1X"
1P"
0-"
0)"
0!"
0w
bx00100000100000100000 3
bx00100000100000100000 4
bx00100000100000100000 A#
0(
b10011 +
1-
1'
#50
x"
bx 1#
bx 6#
x/#
x+#
bx .
bx 0#
bx 5#
x'#
x.#
x*#
x&#
xl"
bx m"
bx r"
x5"
bx 6"
bx ;"
bx 0
x\
bx ]
bx b
b0x00000x k"
b0x00000x q"
b0x00000x 4"
b0x00000x :"
b0x00000x [
b0x00000x a
0f"
0b"
0Z"
0R"
xV
xN
xF
bx00x00000x00000x00000x /
x>
0d"
0`"
0X"
0P"
1T
1L
1D
1<
bx001000001000001000001 3
bx001000001000001000001 4
bx001000001000001000001 A#
1(
1)
b10100 +
1-
1'
#52
0"
b0 1#
b0 6#
0/#
0+#
b0 .
b0 0#
b0 5#
0'#
0.#
0*#
0&#
0l"
b0 m"
b0 r"
05"
b0 6"
b0 ;"
b0 0
0\
b0 ]
b0 b
b0x00000x0 k"
b0x00000x0 q"
b0x00000x0 4"
b0x00000x0 :"
b0x00000x0 [
b0x00000x0 a
x/"
x'"
x}
xu
0Z
0V
0N
0F
bx00x00000x00000x00000x0 /
0>
1-"
1%"
1{
1s
0X
0T
0L
0D
0<
bx0010000010000010000010 3
bx0010000010000010000010 4
bx0010000010000010000010 A#
0(
0)
b10101 +
1-
1'
#54
b0x00000x00 k"
b0x00000x00 q"
b0x00000x00 4"
b0x00000x00 :"
b0x00000x00 [
b0x00000x00 a
xf"
x^"
xV"
xN"
03"
0/"
0'"
0}
bx00x00000x00000x00000x00 /
0u
1d"
1\"
1T"
1L"
01"
0-"
0%"
0{
0s
bx00100000100000100000100 3
bx00100000100000100000100 4
bx00100000100000100000100 A#
1(
b10110 +
1-
1'
#56
b0x00000x000 k"
b0x00000x000 q"
b0x00000x000 4"
b0x00000x000 :"
b0x00000x000 [
b0x00000x000 a
0j"
0f"
0^"
0V"
0N"
xZ
xR
xJ
b0x00000x00000x00000x000 /
xB
0h"
0d"
0\"
0T"
0L"
1X
1P
1H
1@
b1000001000001000001000 3
bx001000001000001000001000 4
bx001000001000001000001000 A#
0(
b10111 +
1-
1'
#58
b0x00000x0000 k"
b0x00000x0000 q"
b0x00000x0000 4"
b0x00000x0000 :"
b0x00000x0000 [
b0x00000x0000 a
x3"
x+"
x#"
xy
0Z
0R
0J
b0x00000x00000x00000x0000 /
0B
0%#
11"
1)"
1!"
1w
0X
0P
0H
0@
bx0 2
b10000010000010000010000 3
bx0010000010000010000010000 4
bx0010000010000010000010000 A#
1(
b11000 +
1-
1'
#60
bx00000x00000 k"
bx00000x00000 q"
bx00000x00000 4"
bx00000x00000 :"
bx00000x00000 [
bx00000x00000 a
xj"
xb"
xZ"
xR"
03"
0+"
0#"
bx00000x00000x00000x00000 /
0y
0)#
1h"
1`"
1X"
1P"
01"
0)"
0!"
0w
bx00 2
b100000100000100000100000 3
bx00100000100000100000100000 4
bx00100000100000100000100000 A#
0(
b11001 +
1-
1'
#62
x"
b0x 1#
b0x 6#
b0x .
b0x 0#
b0x 5#
x'#
x.#
x*#
x&#
xl"
bx m"
bx r"
x5"
bx 6"
bx ;"
bx 0
x\
bx ]
bx b
b0x00000x k"
b0x00000x q"
b0x00000x 4"
b0x00000x :"
b0x00000x [
b0x00000x a
0j"
0b"
0Z"
0R"
xV
xN
xF
b0x00000x00000x00000x /
x>
0-#
1%#
0h"
0`"
0X"
0P"
1T
1L
1D
1<
b1 2
b1000001000001000001 3
b1000001000001000001000001 4
b1000001000001000001000001 A#
1(
1)
b11010 +
1-
1'
#64
0(
b11011 +
0-
0'
