output/SIM.vcd
$date
	Wed Jan 24 22:33:48 2024
$end
$version
	Icarus Verilog
$end
$timescale
	1s
$end
$scope module pal_tb $end
$var wire 1 ! clk_pal_tb $end
$var wire 3 " outputs_tb [2:0] $end
$var parameter 32 # NUM_INPUTS $end
$var parameter 32 $ NUM_INTERM_STAGES $end
$var parameter 32 % NUM_OUPUTS $end
$var reg 1 & clk_en_tb $end
$var reg 1 ' clk_tb $end
$var reg 1 ( config_tb $end
$var reg 4 ) inputs_tb [3:0] $end
$scope module uut $end
$var wire 1 ( CFG $end
$var wire 1 ! CLK $end
$var wire 4 * INPUT_VARS [3:0] $end
$var wire 1 + test_lol $end
$var wire 9 , or_results [8:0] $end
$var wire 24 - and_results [23:0] $end
$var wire 3 . OUTPUT_VALS [2:0] $end
$var wire 3 / INTERM_VARS [2:0] $end
$var wire 8 0 INPUT_VARS_N [7:0] $end
$var wire 9 1 FF_CHAIN_OR [8:0] $end
$var wire 24 2 FF_CHAIN_AND [23:0] $end
$var wire 33 3 FF_CHAIN [32:0] $end
$var parameter 32 4 FF_CHAIN_OR_BASE_INDEX $end
$var parameter 32 5 M $end
$var parameter 32 6 N $end
$var parameter 32 7 P $end
$var parameter 32 8 SR_LEN $end
$scope begin AND_GEN_LOOP_OUTER[0] $end
$var parameter 2 9 p $end
$scope begin AND_GEN_LOOP_INNER[0] $end
$var parameter 2 : n $end
$scope module cp $end
$var wire 1 ; cfg_in $end
$var wire 1 < data_in $end
$var wire 1 = data_out $end
$upscope $end
$upscope $end
$scope begin AND_GEN_LOOP_INNER[1] $end
$var parameter 2 > n $end
$scope module cp $end
$var wire 1 ? cfg_in $end
$var wire 1 @ data_in $end
$var wire 1 A data_out $end
$upscope $end
$upscope $end
$scope begin AND_GEN_LOOP_INNER[2] $end
$var parameter 3 B n $end
$scope module cp $end
$var wire 1 C cfg_in $end
$var wire 1 D data_in $end
$var wire 1 E data_out $end
$upscope $end
$upscope $end
$scope begin AND_GEN_LOOP_INNER[3] $end
$var parameter 3 F n $end
$scope module cp $end
$var wire 1 G cfg_in $end
$var wire 1 H data_in $end
$var wire 1 I data_out $end
$upscope $end
$upscope $end
$scope begin AND_GEN_LOOP_INNER[4] $end
$var parameter 4 J n $end
$scope module cp $end
$var wire 1 K cfg_in $end
$var wire 1 L data_in $end
$var wire 1 M data_out $end
$upscope $end
$upscope $end
$scope begin AND_GEN_LOOP_INNER[5] $end
$var parameter 4 N n $end
$scope module cp $end
$var wire 1 O cfg_in $end
$var wire 1 P data_in $end
$var wire 1 Q data_out $end
$upscope $end
$upscope $end
$scope begin AND_GEN_LOOP_INNER[6] $end
$var parameter 4 R n $end
$scope module cp $end
$var wire 1 S cfg_in $end
$var wire 1 T data_in $end
$var wire 1 U data_out $end
$upscope $end
$upscope $end
$scope begin AND_GEN_LOOP_INNER[7] $end
$var parameter 4 V n $end
$scope module cp $end
$var wire 1 W cfg_in $end
$var wire 1 X data_in $end
$var wire 1 Y data_out $end
$upscope $end
$upscope $end
$scope module reduce_and_I $end
$var wire 12 Z data_in [11:0] $end
$var wire 1 [ reduced_out $end
$var wire 4 \ data_stride [3:0] $end
$var parameter 64 ] LEN $end
$var parameter 24 ^ OPERATION $end
$var parameter 32 _ STRIDE $end
$scope begin genblk1 $end
$upscope $end
$scope module stride_I $end
$var wire 12 ` in [11:0] $end
$var wire 4 a strided_out [3:0] $end
$var parameter 64 b LEN $end
$var parameter 32 c STRIDE $end
$scope begin REDUCE_LOOP[0] $end
$var parameter 2 d i $end
$scope begin genblk1 $end
$upscope $end
$upscope $end
$scope begin REDUCE_LOOP[1] $end
$var parameter 2 e i $end
$upscope $end
$scope begin REDUCE_LOOP[2] $end
$var parameter 3 f i $end
$upscope $end
$scope begin REDUCE_LOOP[3] $end
$var parameter 3 g i $end
$scope begin genblk1 $end
$upscope $end
$upscope $end
$scope begin REDUCE_LOOP[4] $end
$var parameter 4 h i $end
$upscope $end
$scope begin REDUCE_LOOP[5] $end
$var parameter 4 i i $end
$upscope $end
$scope begin REDUCE_LOOP[6] $end
$var parameter 4 j i $end
$scope begin genblk1 $end
$upscope $end
$upscope $end
$scope begin REDUCE_LOOP[7] $end
$var parameter 4 k i $end
$upscope $end
$scope begin REDUCE_LOOP[8] $end
$var parameter 5 l i $end
$upscope $end
$scope begin REDUCE_LOOP[9] $end
$var parameter 5 m i $end
$scope begin genblk1 $end
$upscope $end
$upscope $end
$scope begin REDUCE_LOOP[10] $end
$var parameter 5 n i $end
$upscope $end
$scope begin REDUCE_LOOP[11] $end
$var parameter 5 o i $end
$upscope $end
$upscope $end
$upscope $end
$upscope $end
$scope begin AND_GEN_LOOP_OUTER[1] $end
$var parameter 2 p p $end
$scope begin AND_GEN_LOOP_INNER[0] $end
$var parameter 2 q n $end
$scope module cp $end
$var wire 1 r cfg_in $end
$var wire 1 s data_in $end
$var wire 1 t data_out $end
$upscope $end
$upscope $end
$scope begin AND_GEN_LOOP_INNER[1] $end
$var parameter 2 u n $end
$scope module cp $end
$var wire 1 v cfg_in $end
$var wire 1 w data_in $end
$var wire 1 x data_out $end
$upscope $end
$upscope $end
$scope begin AND_GEN_LOOP_INNER[2] $end
$var parameter 3 y n $end
$scope module cp $end
$var wire 1 z cfg_in $end
$var wire 1 { data_in $end
$var wire 1 | data_out $end
$upscope $end
$upscope $end
$scope begin AND_GEN_LOOP_INNER[3] $end
$var parameter 3 } n $end
$scope module cp $end
$var wire 1 ~ cfg_in $end
$var wire 1 !" data_in $end
$var wire 1 "" data_out $end
$upscope $end
$upscope $end
$scope begin AND_GEN_LOOP_INNER[4] $end
$var parameter 4 #" n $end
$scope module cp $end
$var wire 1 $" cfg_in $end
$var wire 1 %" data_in $end
$var wire 1 &" data_out $end
$upscope $end
$upscope $end
$scope begin AND_GEN_LOOP_INNER[5] $end
$var parameter 4 '" n $end
$scope module cp $end
$var wire 1 (" cfg_in $end
$var wire 1 )" data_in $end
$var wire 1 *" data_out $end
$upscope $end
$upscope $end
$scope begin AND_GEN_LOOP_INNER[6] $end
$var parameter 4 +" n $end
$scope module cp $end
$var wire 1 ," cfg_in $end
$var wire 1 -" data_in $end
$var wire 1 ." data_out $end
$upscope $end
$upscope $end
$scope begin AND_GEN_LOOP_INNER[7] $end
$var parameter 4 /" n $end
$scope module cp $end
$var wire 1 0" cfg_in $end
$var wire 1 1" data_in $end
$var wire 1 2" data_out $end
$upscope $end
$upscope $end
$scope module reduce_and_I $end
$var wire 12 3" data_in [11:0] $end
$var wire 1 4" reduced_out $end
$var wire 4 5" data_stride [3:0] $end
$var parameter 64 6" LEN $end
$var parameter 24 7" OPERATION $end
$var parameter 32 8" STRIDE $end
$scope begin genblk1 $end
$upscope $end
$scope module stride_I $end
$var wire 12 9" in [11:0] $end
$var wire 4 :" strided_out [3:0] $end
$var parameter 64 ;" LEN $end
$var parameter 32 <" STRIDE $end
$scope begin REDUCE_LOOP[0] $end
$var parameter 2 =" i $end
$scope begin genblk1 $end
$upscope $end
$upscope $end
$scope begin REDUCE_LOOP[1] $end
$var parameter 2 >" i $end
$upscope $end
$scope begin REDUCE_LOOP[2] $end
$var parameter 3 ?" i $end
$upscope $end
$scope begin REDUCE_LOOP[3] $end
$var parameter 3 @" i $end
$scope begin genblk1 $end
$upscope $end
$upscope $end
$scope begin REDUCE_LOOP[4] $end
$var parameter 4 A" i $end
$upscope $end
$scope begin REDUCE_LOOP[5] $end
$var parameter 4 B" i $end
$upscope $end
$scope begin REDUCE_LOOP[6] $end
$var parameter 4 C" i $end
$scope begin genblk1 $end
$upscope $end
$upscope $end
$scope begin REDUCE_LOOP[7] $end
$var parameter 4 D" i $end
$upscope $end
$scope begin REDUCE_LOOP[8] $end
$var parameter 5 E" i $end
$upscope $end
$scope begin REDUCE_LOOP[9] $end
$var parameter 5 F" i $end
$scope begin genblk1 $end
$upscope $end
$upscope $end
$scope begin REDUCE_LOOP[10] $end
$var parameter 5 G" i $end
$upscope $end
$scope begin REDUCE_LOOP[11] $end
$var parameter 5 H" i $end
$upscope $end
$upscope $end
$upscope $end
$upscope $end
$scope begin AND_GEN_LOOP_OUTER[2] $end
$var parameter 3 I" p $end
$scope begin AND_GEN_LOOP_INNER[0] $end
$var parameter 2 J" n $end
$scope module cp $end
$var wire 1 K" cfg_in $end
$var wire 1 L" data_in $end
$var wire 1 M" data_out $end
$upscope $end
$upscope $end
$scope begin AND_GEN_LOOP_INNER[1] $end
$var parameter 2 N" n $end
$scope module cp $end
$var wire 1 O" cfg_in $end
$var wire 1 P" data_in $end
$var wire 1 Q" data_out $end
$upscope $end
$upscope $end
$scope begin AND_GEN_LOOP_INNER[2] $end
$var parameter 3 R" n $end
$scope module cp $end
$var wire 1 S" cfg_in $end
$var wire 1 T" data_in $end
$var wire 1 U" data_out $end
$upscope $end
$upscope $end
$scope begin AND_GEN_LOOP_INNER[3] $end
$var parameter 3 V" n $end
$scope module cp $end
$var wire 1 W" cfg_in $end
$var wire 1 X" data_in $end
$var wire 1 Y" data_out $end
$upscope $end
$upscope $end
$scope begin AND_GEN_LOOP_INNER[4] $end
$var parameter 4 Z" n $end
$scope module cp $end
$var wire 1 [" cfg_in $end
$var wire 1 \" data_in $end
$var wire 1 ]" data_out $end
$upscope $end
$upscope $end
$scope begin AND_GEN_LOOP_INNER[5] $end
$var parameter 4 ^" n $end
$scope module cp $end
$var wire 1 _" cfg_in $end
$var wire 1 `" data_in $end
$var wire 1 a" data_out $end
$upscope $end
$upscope $end
$scope begin AND_GEN_LOOP_INNER[6] $end
$var parameter 4 b" n $end
$scope module cp $end
$var wire 1 c" cfg_in $end
$var wire 1 d" data_in $end
$var wire 1 e" data_out $end
$upscope $end
$upscope $end
$scope begin AND_GEN_LOOP_INNER[7] $end
$var parameter 4 f" n $end
$scope module cp $end
$var wire 1 g" cfg_in $end
$var wire 1 h" data_in $end
$var wire 1 i" data_out $end
$upscope $end
$upscope $end
$scope module reduce_and_I $end
$var wire 12 j" data_in [11:0] $end
$var wire 1 k" reduced_out $end
$var wire 4 l" data_stride [3:0] $end
$var parameter 64 m" LEN $end
$var parameter 24 n" OPERATION $end
$var parameter 32 o" STRIDE $end
$scope begin genblk1 $end
$upscope $end
$scope module stride_I $end
$var wire 12 p" in [11:0] $end
$var wire 4 q" strided_out [3:0] $end
$var parameter 64 r" LEN $end
$var parameter 32 s" STRIDE $end
$scope begin REDUCE_LOOP[0] $end
$var parameter 2 t" i $end
$scope begin genblk1 $end
$upscope $end
$upscope $end
$scope begin REDUCE_LOOP[1] $end
$var parameter 2 u" i $end
$upscope $end
$scope begin REDUCE_LOOP[2] $end
$var parameter 3 v" i $end
$upscope $end
$scope begin REDUCE_LOOP[3] $end
$var parameter 3 w" i $end
$scope begin genblk1 $end
$upscope $end
$upscope $end
$scope begin REDUCE_LOOP[4] $end
$var parameter 4 x" i $end
$upscope $end
$scope begin REDUCE_LOOP[5] $end
$var parameter 4 y" i $end
$upscope $end
$scope begin REDUCE_LOOP[6] $end
$var parameter 4 z" i $end
$scope begin genblk1 $end
$upscope $end
$upscope $end
$scope begin REDUCE_LOOP[7] $end
$var parameter 4 {" i $end
$upscope $end
$scope begin REDUCE_LOOP[8] $end
$var parameter 5 |" i $end
$upscope $end
$scope begin REDUCE_LOOP[9] $end
$var parameter 5 }" i $end
$scope begin genblk1 $end
$upscope $end
$upscope $end
$scope begin REDUCE_LOOP[10] $end
$var parameter 5 ~" i $end
$upscope $end
$scope begin REDUCE_LOOP[11] $end
$var parameter 5 !# i $end
$upscope $end
$upscope $end
$upscope $end
$upscope $end
$scope begin OR_GEN_LOOP_OUTER[0] $end
$var parameter 2 "# m $end
$scope begin OR_GEN_LOOP_INNER[0] $end
$var parameter 2 ## p $end
$scope module cp $end
$var wire 1 $# cfg_in $end
$var wire 1 %# data_in $end
$var wire 1 &# data_out $end
$upscope $end
$upscope $end
$scope begin OR_GEN_LOOP_INNER[1] $end
$var parameter 2 '# p $end
$scope module cp $end
$var wire 1 (# cfg_in $end
$var wire 1 )# data_in $end
$var wire 1 *# data_out $end
$upscope $end
$upscope $end
$scope begin OR_GEN_LOOP_INNER[2] $end
$var parameter 3 +# p $end
$scope module cp $end
$var wire 1 ,# cfg_in $end
$var wire 1 -# data_in $end
$var wire 1 .# data_out $end
$upscope $end
$upscope $end
$scope module reduce_and_I $end
$var wire 9 /# data_in [8:0] $end
$var wire 1 0# reduced_out $end
$var wire 3 1# data_stride [2:0] $end
$var parameter 64 2# LEN $end
$var parameter 16 3# OPERATION $end
$var parameter 32 4# STRIDE $end
$scope begin genblk1 $end
$upscope $end
$scope module stride_I $end
$var wire 9 5# in [8:0] $end
$var wire 3 6# strided_out [2:0] $end
$var parameter 64 7# LEN $end
$var parameter 32 8# STRIDE $end
$scope begin REDUCE_LOOP[0] $end
$var parameter 2 9# i $end
$scope begin genblk1 $end
$upscope $end
$upscope $end
$scope begin REDUCE_LOOP[1] $end
$var parameter 2 :# i $end
$upscope $end
$scope begin REDUCE_LOOP[2] $end
$var parameter 3 ;# i $end
$upscope $end
$scope begin REDUCE_LOOP[3] $end
$var parameter 3 <# i $end
$scope begin genblk1 $end
$upscope $end
$upscope $end
$scope begin REDUCE_LOOP[4] $end
$var parameter 4 =# i $end
$upscope $end
$scope begin REDUCE_LOOP[5] $end
$var parameter 4 ># i $end
$upscope $end
$scope begin REDUCE_LOOP[6] $end
$var parameter 4 ?# i $end
$scope begin genblk1 $end
$upscope $end
$upscope $end
$scope begin REDUCE_LOOP[7] $end
$var parameter 4 @# i $end
$upscope $end
$scope begin REDUCE_LOOP[8] $end
$var parameter 5 A# i $end
$upscope $end
$upscope $end
$upscope $end
$upscope $end
$scope begin OR_GEN_LOOP_OUTER[1] $end
$var parameter 2 B# m $end
$scope begin OR_GEN_LOOP_INNER[0] $end
$var parameter 2 C# p $end
$scope module cp $end
$var wire 1 D# cfg_in $end
$var wire 1 E# data_in $end
$var wire 1 F# data_out $end
$upscope $end
$upscope $end
$scope begin OR_GEN_LOOP_INNER[1] $end
$var parameter 2 G# p $end
$scope module cp $end
$var wire 1 H# cfg_in $end
$var wire 1 I# data_in $end
$var wire 1 J# data_out $end
$upscope $end
$upscope $end
$scope begin OR_GEN_LOOP_INNER[2] $end
$var parameter 3 K# p $end
$scope module cp $end
$var wire 1 L# cfg_in $end
$var wire 1 M# data_in $end
$var wire 1 N# data_out $end
$upscope $end
$upscope $end
$scope module reduce_and_I $end
$var wire 9 O# data_in [8:0] $end
$var wire 1 P# reduced_out $end
$var wire 3 Q# data_stride [2:0] $end
$var parameter 64 R# LEN $end
$var parameter 16 S# OPERATION $end
$var parameter 32 T# STRIDE $end
$scope begin genblk1 $end
$upscope $end
$scope module stride_I $end
$var wire 9 U# in [8:0] $end
$var wire 3 V# strided_out [2:0] $end
$var parameter 64 W# LEN $end
$var parameter 32 X# STRIDE $end
$scope begin REDUCE_LOOP[0] $end
$var parameter 2 Y# i $end
$scope begin genblk1 $end
$upscope $end
$upscope $end
$scope begin REDUCE_LOOP[1] $end
$var parameter 2 Z# i $end
$upscope $end
$scope begin REDUCE_LOOP[2] $end
$var parameter 3 [# i $end
$upscope $end
$scope begin REDUCE_LOOP[3] $end
$var parameter 3 \# i $end
$scope begin genblk1 $end
$upscope $end
$upscope $end
$scope begin REDUCE_LOOP[4] $end
$var parameter 4 ]# i $end
$upscope $end
$scope begin REDUCE_LOOP[5] $end
$var parameter 4 ^# i $end
$upscope $end
$scope begin REDUCE_LOOP[6] $end
$var parameter 4 _# i $end
$scope begin genblk1 $end
$upscope $end
$upscope $end
$scope begin REDUCE_LOOP[7] $end
$var parameter 4 `# i $end
$upscope $end
$scope begin REDUCE_LOOP[8] $end
$var parameter 5 a# i $end
$upscope $end
$upscope $end
$upscope $end
$upscope $end
$scope begin OR_GEN_LOOP_OUTER[2] $end
$var parameter 3 b# m $end
$scope begin OR_GEN_LOOP_INNER[0] $end
$var parameter 2 c# p $end
$scope module cp $end
$var wire 1 d# cfg_in $end
$var wire 1 e# data_in $end
$var wire 1 f# data_out $end
$upscope $end
$upscope $end
$scope begin OR_GEN_LOOP_INNER[1] $end
$var parameter 2 g# p $end
$scope module cp $end
$var wire 1 h# cfg_in $end
$var wire 1 i# data_in $end
$var wire 1 j# data_out $end
$upscope $end
$upscope $end
$scope begin OR_GEN_LOOP_INNER[2] $end
$var parameter 3 k# p $end
$scope module cp $end
$var wire 1 l# cfg_in $end
$var wire 1 m# data_in $end
$var wire 1 n# data_out $end
$upscope $end
$upscope $end
$scope module reduce_and_I $end
$var wire 9 o# data_in [8:0] $end
$var wire 1 p# reduced_out $end
$var wire 3 q# data_stride [2:0] $end
$var parameter 64 r# LEN $end
$var parameter 16 s# OPERATION $end
$var parameter 32 t# STRIDE $end
$scope begin genblk1 $end
$upscope $end
$scope module stride_I $end
$var wire 9 u# in [8:0] $end
$var wire 3 v# strided_out [2:0] $end
$var parameter 64 w# LEN $end
$var parameter 32 x# STRIDE $end
$scope begin REDUCE_LOOP[0] $end
$var parameter 2 y# i $end
$scope begin genblk1 $end
$upscope $end
$upscope $end
$scope begin REDUCE_LOOP[1] $end
$var parameter 2 z# i $end
$upscope $end
$scope begin REDUCE_LOOP[2] $end
$var parameter 3 {# i $end
$upscope $end
$scope begin REDUCE_LOOP[3] $end
$var parameter 3 |# i $end
$scope begin genblk1 $end
$upscope $end
$upscope $end
$scope begin REDUCE_LOOP[4] $end
$var parameter 4 }# i $end
$upscope $end
$scope begin REDUCE_LOOP[5] $end
$var parameter 4 ~# i $end
$upscope $end
$scope begin REDUCE_LOOP[6] $end
$var parameter 4 !$ i $end
$scope begin genblk1 $end
$upscope $end
$upscope $end
$scope begin REDUCE_LOOP[7] $end
$var parameter 4 "$ i $end
$upscope $end
$scope begin REDUCE_LOOP[8] $end
$var parameter 5 #$ i $end
$upscope $end
$upscope $end
$upscope $end
$upscope $end
$scope begin genblk1[0] $end
$var parameter 2 $$ n $end
$upscope $end
$scope begin genblk1[1] $end
$var parameter 2 %$ n $end
$upscope $end
$scope begin genblk1[2] $end
$var parameter 3 &$ n $end
$upscope $end
$scope begin genblk1[3] $end
$var parameter 3 '$ n $end
$upscope $end
$scope module sr $end
$var wire 1 ( CFG $end
$var wire 1 ! CLK $end
$var parameter 32 ($ LEN $end
$var reg 33 )$ FF_CHAIN [32:0] $end
$upscope $end
$upscope $end
$upscope $end
$enddefinitions $end
$comment Show the parameter values. $end
$dumpall
b100001 ($
b11 '$
b10 &$
b1 %$
b0 $$
b1000 #$
b111 "$
b110 !$
b101 ~#
b100 }#
b11 |#
b10 {#
b1 z#
b0 y#
b11 x#
b1001 w#
b11 t#
b110111101110010 s#
b1001 r#
b10 k#
b1 g#
b0 c#
b10 b#
b1000 a#
b111 `#
b110 _#
b101 ^#
b100 ]#
b11 \#
b10 [#
b1 Z#
b0 Y#
b11 X#
b1001 W#
b11 T#
b110111101110010 S#
b1001 R#
b10 K#
b1 G#
b0 C#
b1 B#
b1000 A#
b111 @#
b110 ?#
b101 >#
b100 =#
b11 <#
b10 ;#
b1 :#
b0 9#
b11 8#
b1001 7#
b11 4#
b110111101110010 3#
b1001 2#
b10 +#
b1 '#
b0 ##
b0 "#
b1011 !#
b1010 ~"
b1001 }"
b1000 |"
b111 {"
b110 z"
b101 y"
b100 x"
b11 w"
b10 v"
b1 u"
b0 t"
b11 s"
b1100 r"
b11 o"
b11000010110111001100100 n"
b1100 m"
b111 f"
b110 b"
b101 ^"
b100 Z"
b11 V"
b10 R"
b1 N"
b0 J"
b10 I"
b1011 H"
b1010 G"
b1001 F"
b1000 E"
b111 D"
b110 C"
b101 B"
b100 A"
b11 @"
b10 ?"
b1 >"
b0 ="
b11 <"
b1100 ;"
b11 8"
b11000010110111001100100 7"
b1100 6"
b111 /"
b110 +"
b101 '"
b100 #"
b11 }
b10 y
b1 u
b0 q
b1 p
b1011 o
b1010 n
b1001 m
b1000 l
b111 k
b110 j
b101 i
b100 h
b11 g
b10 f
b1 e
b0 d
b11 c
b1100 b
b11 _
b11000010110111001100100 ^
b1100 ]
b111 V
b110 R
b101 N
b100 J
b11 F
b10 B
b1 >
b0 :
b0 9
b100001 8
b11 7
b100 6
b11 5
b11000 4
b11 %
b11 $
b100 #
$end
#0
$dumpvars
bx1 )$
b0 v#
b0 u#
b0 q#
0p#
b0 o#
0n#
0m#
xl#
0j#
0i#
xh#
0f#
0e#
xd#
b0 V#
b0 U#
b0 Q#
0P#
b0 O#
0N#
0M#
xL#
0J#
0I#
xH#
0F#
0E#
xD#
b0 6#
b0 5#
b0 1#
00#
b0 /#
0.#
0-#
x,#
0*#
0)#
x(#
0&#
0%#
x$#
b0x01 q"
b0xxx000xx1 p"
b0x01 l"
0k"
b0xxx000xx1 j"
0i"
0h"
xg"
xe"
1d"
xc"
0a"
0`"
x_"
x]"
1\"
x["
0Y"
0X"
xW"
xU"
1T"
xS"
0Q"
0P"
xO"
xM"
1L"
xK"
b0x01 :"
b0xxx000xx1 9"
b0x01 5"
04"
b0xxx000xx1 3"
02"
01"
x0"
x."
1-"
x,"
0*"
0)"
x("
x&"
1%"
x$"
0""
0!"
x~
x|
1{
xz
0x
0w
xv
xt
1s
xr
b0x01 a
b0xxx000xx1 `
b0x01 \
0[
b0xxx000xx1 Z
0Y
0X
xW
xU
1T
xS
0Q
0P
xO
xM
1L
xK
0I
0H
xG
xE
1D
xC
0A
0@
x?
1=
1<
1;
bx1 3
bx1 2
bx 1
b1010101 0
b0 /
b0 .
b0xxx000xxx000xxx000xx1 -
b0 ,
1+
b1111 *
b1111 )
1(
0'
1&
b0 "
1!
$end
#10
bx0x0 l"
bx0x0 q"
bx0x0 5"
bx0x0 :"
bx0x0 \
bx0x0 a
xA
xx
xQ"
bx000xxx000 j"
bx000xxx000 p"
bx000xxx000 3"
bx000xxx000 9"
bx000xxx000 Z
bx000xxx000 `
xI
x""
xY"
xQ
x*"
xa"
xY
x2"
xi"
0=
0t
0M"
1@
1w
1P"
0E
0|
0U"
1H
1!"
1X"
0M
0&"
0]"
1P
1)"
1`"
0U
0."
bx000xxx000xxx000xxx000 -
0e"
1X
11"
1h"
0<
0s
0L"
0D
0{
0T"
0L
0%"
0\"
0T
0-"
0d"
b10101010 0
0+
0!
b0 )
b0 *
1'
#20
1r
bx11 2
bx11 3
bx11 )$
b0x01 l"
b0x01 q"
b0x01 5"
b0x01 :"
b0x01 \
b0x01 a
0A
0x
0Q"
b0xxx000x11 j"
b0xxx000x11 p"
b0xxx000x11 3"
b0xxx000x11 9"
b0xxx000x11 Z
b0xxx000x11 `
0I
0""
0Y"
0Q
0*"
0a"
0Y
02"
0i"
1=
1t
xM"
0@
0w
0P"
xE
x|
xU"
0H
0!"
0X"
xM
x&"
x]"
0P
0)"
0`"
xU
x."
b0xxx000xxx000xxx000x11 -
xe"
0X
01"
0h"
1<
1s
1L"
1D
1{
1T"
1L
1%"
1\"
1T
1-"
1d"
b1010101 0
1+
1!
b1111 )
b1111 *
0'
#30
bx0x0 l"
bx0x0 q"
bx0x0 5"
bx0x0 :"
bx0x0 \
bx0x0 a
xA
xx
xQ"
bx000xxx000 j"
bx000xxx000 p"
bx000xxx000 3"
bx000xxx000 9"
bx000xxx000 Z
bx000xxx000 `
xI
x""
xY"
xQ
x*"
xa"
xY
x2"
xi"
0=
0t
0M"
1@
1w
1P"
0E
0|
0U"
1H
1!"
1X"
0M
0&"
0]"
1P
1)"
1`"
0U
0."
bx000xxx000xxx000xxx000 -
0e"
1X
11"
1h"
0<
0s
0L"
0D
0{
0T"
0L
0%"
0\"
0T
0-"
0d"
b10101010 0
0+
0!
b0 )
b0 *
1'
#40
1K"
bx111 2
bx111 3
bx111 )$
b0x01 l"
b0x01 q"
b0x01 5"
b0x01 :"
b0x01 \
b0x01 a
0A
0x
0Q"
b0xxx000111 j"
b0xxx000111 p"
b0xxx000111 3"
b0xxx000111 9"
b0xxx000111 Z
b0xxx000111 `
0I
0""
0Y"
0Q
0*"
0a"
0Y
02"
0i"
1=
1t
1M"
0@
0w
0P"
xE
x|
xU"
0H
0!"
0X"
xM
x&"
x]"
0P
0)"
0`"
xU
x."
b0xxx000xxx000xxx000111 -
xe"
0X
01"
0h"
1<
1s
1L"
1D
1{
1T"
1L
1%"
1\"
1T
1-"
1d"
b1010101 0
1+
1!
b1111 )
b1111 *
0'
#50
bx0x0 l"
bx0x0 q"
bx0x0 5"
bx0x0 :"
bx0x0 \
bx0x0 a
xA
xx
xQ"
bx000xxx000 j"
bx000xxx000 p"
bx000xxx000 3"
bx000xxx000 9"
bx000xxx000 Z
bx000xxx000 `
xI
x""
xY"
xQ
x*"
xa"
xY
x2"
xi"
0=
0t
0M"
1@
1w
1P"
0E
0|
0U"
1H
1!"
1X"
0M
0&"
0]"
1P
1)"
1`"
0U
0."
bx000xxx000xxx000xxx000 -
0e"
1X
11"
1h"
0<
0s
0L"
0D
0{
0T"
0L
0%"
0\"
0T
0-"
0d"
b10101010 0
0+
0!
b0 )
b0 *
1'
#60
1?
bx1111 2
bx1111 3
bx1111 )$
b0x01 l"
b0x01 q"
b0x01 5"
b0x01 :"
b0x01 \
b0x01 a
0A
0x
0Q"
b0xxx000111 j"
b0xxx000111 p"
b0xxx000111 3"
b0xxx000111 9"
b0xxx000111 Z
b0xxx000111 `
0I
0""
0Y"
0Q
0*"
0a"
0Y
02"
0i"
1=
1t
1M"
0@
0w
0P"
xE
x|
xU"
0H
0!"
0X"
xM
x&"
x]"
0P
0)"
0`"
xU
x."
b0xxx000xxx000xxx000111 -
xe"
0X
01"
0h"
1<
1s
1L"
1D
1{
1T"
1L
1%"
1\"
1T
1-"
1d"
b1010101 0
1+
1!
b1111 )
b1111 *
0'
#70
bx010 l"
bx010 q"
bx010 5"
bx010 :"
bx010 \
bx010 a
1A
xx
xQ"
bx000xx1000 j"
bx000xx1000 p"
bx000xx1000 3"
bx000xx1000 9"
bx000xx1000 Z
bx000xx1000 `
xI
x""
xY"
xQ
x*"
xa"
xY
x2"
xi"
0=
0t
0M"
1@
1w
1P"
0E
0|
0U"
1H
1!"
1X"
0M
0&"
0]"
1P
1)"
1`"
0U
0."
bx000xxx000xxx000xx1000 -
0e"
1X
11"
1h"
0<
0s
0L"
0D
0{
0T"
0L
0%"
0\"
0T
0-"
0d"
b10101010 0
0+
0!
b0 )
b0 *
1'
#80
1v
bx11111 2
bx11111 3
bx11111 )$
b0x01 l"
b0x01 q"
b0x01 5"
b0x01 :"
b0x01 \
b0x01 a
0A
0x
0Q"
b0xxx000111 j"
b0xxx000111 p"
b0xxx000111 3"
b0xxx000111 9"
b0xxx000111 Z
b0xxx000111 `
0I
0""
0Y"
0Q
0*"
0a"
0Y
02"
0i"
1=
1t
1M"
0@
0w
0P"
xE
x|
xU"
0H
0!"
0X"
xM
x&"
x]"
0P
0)"
0`"
xU
x."
b0xxx000xxx000xxx000111 -
xe"
0X
01"
0h"
1<
1s
1L"
1D
1{
1T"
1L
1%"
1\"
1T
1-"
1d"
b1010101 0
1+
1!
b1111 )
b1111 *
0'
#90
bx010 l"
bx010 q"
bx010 5"
bx010 :"
bx010 \
bx010 a
1A
1x
xQ"
bx000x11000 j"
bx000x11000 p"
bx000x11000 3"
bx000x11000 9"
bx000x11000 Z
bx000x11000 `
xI
x""
xY"
xQ
x*"
xa"
xY
x2"
xi"
0=
0t
0M"
1@
1w
1P"
0E
0|
0U"
1H
1!"
1X"
0M
0&"
0]"
1P
1)"
1`"
0U
0."
bx000xxx000xxx000x11000 -
0e"
1X
11"
1h"
0<
0s
0L"
0D
0{
0T"
0L
0%"
0\"
0T
0-"
0d"
b10101010 0
0+
0!
b0 )
b0 *
1'
#100
1O"
bx111111 2
bx111111 3
bx111111 )$
b0x01 l"
b0x01 q"
b0x01 5"
b0x01 :"
b0x01 \
b0x01 a
0A
0x
0Q"
b0xxx000111 j"
b0xxx000111 p"
b0xxx000111 3"
b0xxx000111 9"
b0xxx000111 Z
b0xxx000111 `
0I
0""
0Y"
0Q
0*"
0a"
0Y
02"
0i"
1=
1t
1M"
0@
0w
0P"
xE
x|
xU"
0H
0!"
0X"
xM
x&"
x]"
0P
0)"
0`"
xU
x."
b0xxx000xxx000xxx000111 -
xe"
0X
01"
0h"
1<
1s
1L"
1D
1{
1T"
1L
1%"
1\"
1T
1-"
1d"
b1010101 0
1+
1!
b1111 )
b1111 *
0'
#110
bx010 l"
bx010 q"
bx010 5"
bx010 :"
bx010 \
bx010 a
1A
1x
1Q"
bx000111000 j"
bx000111000 p"
bx000111000 3"
bx000111000 9"
bx000111000 Z
bx000111000 `
xI
x""
xY"
xQ
x*"
xa"
xY
x2"
xi"
0=
0t
0M"
1@
1w
1P"
0E
0|
0U"
1H
1!"
1X"
0M
0&"
0]"
1P
1)"
1`"
0U
0."
bx000xxx000xxx000111000 -
0e"
1X
11"
1h"
0<
0s
0L"
0D
0{
0T"
0L
0%"
0\"
0T
0-"
0d"
b10101010 0
0+
0!
b0 )
b0 *
1'
#120
1C
bx1111111 2
bx1111111 3
bx1111111 )$
b101 l"
b101 q"
b101 5"
b101 :"
b101 \
b101 a
0A
0x
0Q"
b0xx1000111 j"
b0xx1000111 p"
b0xx1000111 3"
b0xx1000111 9"
b0xx1000111 Z
b0xx1000111 `
0I
0""
0Y"
0Q
0*"
0a"
0Y
02"
0i"
1=
1t
1M"
0@
0w
0P"
1E
x|
xU"
0H
0!"
0X"
xM
x&"
x]"
0P
0)"
0`"
xU
x."
b0xxx000xxx000xx1000111 -
xe"
0X
01"
0h"
1<
1s
1L"
1D
1{
1T"
1L
1%"
1\"
1T
1-"
1d"
b1010101 0
1+
1!
b1111 )
b1111 *
0'
