output/SIM.vcd
$date
	Mon Feb 19 22:01:59 2024
$end
$version
	Icarus Verilog
$end
$timescale
	1s
$end
$scope module pal_tb $end
$var wire 27 ! bitstream [26:0] $end
$var wire 1 " outputs_tb $end
$var parameter 32 # BITSTREAM_LEN $end
$var parameter 32 $ NUM_INPUTS $end
$var parameter 32 % NUM_INTERM_STAGES $end
$var parameter 32 & NUM_OUPUTS $end
$var reg 1 ' clk_pal_tb $end
$var reg 1 ( clk_tb $end
$var reg 1 ) config_tb $end
$var reg 4 * inputs_tb [3:0] $end
$var integer 32 + i [31:0] $end
$scope module uut $end
$var wire 1 ) CFG $end
$var wire 1 ' CLK $end
$var wire 4 , INPUT_VARS [3:0] $end
$var wire 1 - test_lol $end
$var wire 3 . or_results [2:0] $end
$var wire 24 / and_results [23:0] $end
$var wire 1 " OUTPUT_VALS $end
$var wire 3 0 INTERM_VARS [2:0] $end
$var wire 8 1 INPUT_VARS_N [7:0] $end
$var wire 3 2 FF_CHAIN_OR [2:0] $end
$var wire 24 3 FF_CHAIN_AND [23:0] $end
$var wire 27 4 FF_CHAIN [26:0] $end
$var parameter 32 5 FF_CHAIN_OR_BASE_INDEX $end
$var parameter 32 6 M $end
$var parameter 32 7 N $end
$var parameter 32 8 P $end
$var parameter 32 9 SR_LEN $end
$scope begin AND_GEN_LOOP_OUTER[0] $end
$var parameter 2 : p $end
$scope begin AND_GEN_LOOP_INNER[0] $end
$var parameter 2 ; n $end
$scope module cp $end
$var wire 1 < cfg_in $end
$var wire 1 = data_in $end
$var wire 1 > data_out $end
$var parameter 24 ? OP $end
$scope begin genblk1 $end
$upscope $end
$upscope $end
$upscope $end
$scope begin AND_GEN_LOOP_INNER[1] $end
$var parameter 2 @ n $end
$scope module cp $end
$var wire 1 A cfg_in $end
$var wire 1 B data_in $end
$var wire 1 C data_out $end
$var parameter 24 D OP $end
$scope begin genblk1 $end
$upscope $end
$upscope $end
$upscope $end
$scope begin AND_GEN_LOOP_INNER[2] $end
$var parameter 3 E n $end
$scope module cp $end
$var wire 1 F cfg_in $end
$var wire 1 G data_in $end
$var wire 1 H data_out $end
$var parameter 24 I OP $end
$scope begin genblk1 $end
$upscope $end
$upscope $end
$upscope $end
$scope begin AND_GEN_LOOP_INNER[3] $end
$var parameter 3 J n $end
$scope module cp $end
$var wire 1 K cfg_in $end
$var wire 1 L data_in $end
$var wire 1 M data_out $end
$var parameter 24 N OP $end
$scope begin genblk1 $end
$upscope $end
$upscope $end
$upscope $end
$scope begin AND_GEN_LOOP_INNER[4] $end
$var parameter 4 O n $end
$scope module cp $end
$var wire 1 P cfg_in $end
$var wire 1 Q data_in $end
$var wire 1 R data_out $end
$var parameter 24 S OP $end
$scope begin genblk1 $end
$upscope $end
$upscope $end
$upscope $end
$scope begin AND_GEN_LOOP_INNER[5] $end
$var parameter 4 T n $end
$scope module cp $end
$var wire 1 U cfg_in $end
$var wire 1 V data_in $end
$var wire 1 W data_out $end
$var parameter 24 X OP $end
$scope begin genblk1 $end
$upscope $end
$upscope $end
$upscope $end
$scope begin AND_GEN_LOOP_INNER[6] $end
$var parameter 4 Y n $end
$scope module cp $end
$var wire 1 Z cfg_in $end
$var wire 1 [ data_in $end
$var wire 1 \ data_out $end
$var parameter 24 ] OP $end
$scope begin genblk1 $end
$upscope $end
$upscope $end
$upscope $end
$scope begin AND_GEN_LOOP_INNER[7] $end
$var parameter 4 ^ n $end
$scope module cp $end
$var wire 1 _ cfg_in $end
$var wire 1 ` data_in $end
$var wire 1 a data_out $end
$var parameter 24 b OP $end
$scope begin genblk1 $end
$upscope $end
$upscope $end
$upscope $end
$scope module reduce_and_I $end
$var wire 24 c data_in [23:0] $end
$var wire 1 d reduced_out $end
$var wire 8 e data_stride [7:0] $end
$var parameter 96 f LEN $end
$var parameter 24 g OPERATION $end
$var parameter 32 h STRIDE $end
$scope begin genblk1 $end
$upscope $end
$scope module stride_I $end
$var wire 24 i in [23:0] $end
$var wire 8 j strided_out [7:0] $end
$var parameter 96 k LEN $end
$var parameter 32 l STRIDE $end
$scope begin REDUCE_LOOP[0] $end
$var parameter 2 m i $end
$scope begin genblk1 $end
$upscope $end
$upscope $end
$scope begin REDUCE_LOOP[1] $end
$var parameter 2 n i $end
$upscope $end
$scope begin REDUCE_LOOP[2] $end
$var parameter 3 o i $end
$upscope $end
$scope begin REDUCE_LOOP[3] $end
$var parameter 3 p i $end
$scope begin genblk1 $end
$upscope $end
$upscope $end
$scope begin REDUCE_LOOP[4] $end
$var parameter 4 q i $end
$upscope $end
$scope begin REDUCE_LOOP[5] $end
$var parameter 4 r i $end
$upscope $end
$scope begin REDUCE_LOOP[6] $end
$var parameter 4 s i $end
$scope begin genblk1 $end
$upscope $end
$upscope $end
$scope begin REDUCE_LOOP[7] $end
$var parameter 4 t i $end
$upscope $end
$scope begin REDUCE_LOOP[8] $end
$var parameter 5 u i $end
$upscope $end
$scope begin REDUCE_LOOP[9] $end
$var parameter 5 v i $end
$scope begin genblk1 $end
$upscope $end
$upscope $end
$scope begin REDUCE_LOOP[10] $end
$var parameter 5 w i $end
$upscope $end
$scope begin REDUCE_LOOP[11] $end
$var parameter 5 x i $end
$upscope $end
$scope begin REDUCE_LOOP[12] $end
$var parameter 5 y i $end
$scope begin genblk1 $end
$upscope $end
$upscope $end
$scope begin REDUCE_LOOP[13] $end
$var parameter 5 z i $end
$upscope $end
$scope begin REDUCE_LOOP[14] $end
$var parameter 5 { i $end
$upscope $end
$scope begin REDUCE_LOOP[15] $end
$var parameter 5 | i $end
$scope begin genblk1 $end
$upscope $end
$upscope $end
$scope begin REDUCE_LOOP[16] $end
$var parameter 6 } i $end
$upscope $end
$scope begin REDUCE_LOOP[17] $end
$var parameter 6 ~ i $end
$upscope $end
$scope begin REDUCE_LOOP[18] $end
$var parameter 6 !" i $end
$scope begin genblk1 $end
$upscope $end
$upscope $end
$scope begin REDUCE_LOOP[19] $end
$var parameter 6 "" i $end
$upscope $end
$scope begin REDUCE_LOOP[20] $end
$var parameter 6 #" i $end
$upscope $end
$scope begin REDUCE_LOOP[21] $end
$var parameter 6 $" i $end
$scope begin genblk1 $end
$upscope $end
$upscope $end
$scope begin REDUCE_LOOP[22] $end
$var parameter 6 %" i $end
$upscope $end
$scope begin REDUCE_LOOP[23] $end
$var parameter 6 &" i $end
$upscope $end
$upscope $end
$upscope $end
$upscope $end
$scope begin AND_GEN_LOOP_OUTER[1] $end
$var parameter 2 '" p $end
$scope begin AND_GEN_LOOP_INNER[0] $end
$var parameter 2 (" n $end
$scope module cp $end
$var wire 1 )" cfg_in $end
$var wire 1 *" data_in $end
$var wire 1 +" data_out $end
$var parameter 24 ," OP $end
$scope begin genblk1 $end
$upscope $end
$upscope $end
$upscope $end
$scope begin AND_GEN_LOOP_INNER[1] $end
$var parameter 2 -" n $end
$scope module cp $end
$var wire 1 ." cfg_in $end
$var wire 1 /" data_in $end
$var wire 1 0" data_out $end
$var parameter 24 1" OP $end
$scope begin genblk1 $end
$upscope $end
$upscope $end
$upscope $end
$scope begin AND_GEN_LOOP_INNER[2] $end
$var parameter 3 2" n $end
$scope module cp $end
$var wire 1 3" cfg_in $end
$var wire 1 4" data_in $end
$var wire 1 5" data_out $end
$var parameter 24 6" OP $end
$scope begin genblk1 $end
$upscope $end
$upscope $end
$upscope $end
$scope begin AND_GEN_LOOP_INNER[3] $end
$var parameter 3 7" n $end
$scope module cp $end
$var wire 1 8" cfg_in $end
$var wire 1 9" data_in $end
$var wire 1 :" data_out $end
$var parameter 24 ;" OP $end
$scope begin genblk1 $end
$upscope $end
$upscope $end
$upscope $end
$scope begin AND_GEN_LOOP_INNER[4] $end
$var parameter 4 <" n $end
$scope module cp $end
$var wire 1 =" cfg_in $end
$var wire 1 >" data_in $end
$var wire 1 ?" data_out $end
$var parameter 24 @" OP $end
$scope begin genblk1 $end
$upscope $end
$upscope $end
$upscope $end
$scope begin AND_GEN_LOOP_INNER[5] $end
$var parameter 4 A" n $end
$scope module cp $end
$var wire 1 B" cfg_in $end
$var wire 1 C" data_in $end
$var wire 1 D" data_out $end
$var parameter 24 E" OP $end
$scope begin genblk1 $end
$upscope $end
$upscope $end
$upscope $end
$scope begin AND_GEN_LOOP_INNER[6] $end
$var parameter 4 F" n $end
$scope module cp $end
$var wire 1 G" cfg_in $end
$var wire 1 H" data_in $end
$var wire 1 I" data_out $end
$var parameter 24 J" OP $end
$scope begin genblk1 $end
$upscope $end
$upscope $end
$upscope $end
$scope begin AND_GEN_LOOP_INNER[7] $end
$var parameter 4 K" n $end
$scope module cp $end
$var wire 1 L" cfg_in $end
$var wire 1 M" data_in $end
$var wire 1 N" data_out $end
$var parameter 24 O" OP $end
$scope begin genblk1 $end
$upscope $end
$upscope $end
$upscope $end
$scope module reduce_and_I $end
$var wire 24 P" data_in [23:0] $end
$var wire 1 Q" reduced_out $end
$var wire 8 R" data_stride [7:0] $end
$var parameter 96 S" LEN $end
$var parameter 24 T" OPERATION $end
$var parameter 32 U" STRIDE $end
$scope begin genblk1 $end
$upscope $end
$scope module stride_I $end
$var wire 24 V" in [23:0] $end
$var wire 8 W" strided_out [7:0] $end
$var parameter 96 X" LEN $end
$var parameter 32 Y" STRIDE $end
$scope begin REDUCE_LOOP[0] $end
$var parameter 2 Z" i $end
$scope begin genblk1 $end
$upscope $end
$upscope $end
$scope begin REDUCE_LOOP[1] $end
$var parameter 2 [" i $end
$upscope $end
$scope begin REDUCE_LOOP[2] $end
$var parameter 3 \" i $end
$upscope $end
$scope begin REDUCE_LOOP[3] $end
$var parameter 3 ]" i $end
$scope begin genblk1 $end
$upscope $end
$upscope $end
$scope begin REDUCE_LOOP[4] $end
$var parameter 4 ^" i $end
$upscope $end
$scope begin REDUCE_LOOP[5] $end
$var parameter 4 _" i $end
$upscope $end
$scope begin REDUCE_LOOP[6] $end
$var parameter 4 `" i $end
$scope begin genblk1 $end
$upscope $end
$upscope $end
$scope begin REDUCE_LOOP[7] $end
$var parameter 4 a" i $end
$upscope $end
$scope begin REDUCE_LOOP[8] $end
$var parameter 5 b" i $end
$upscope $end
$scope begin REDUCE_LOOP[9] $end
$var parameter 5 c" i $end
$scope begin genblk1 $end
$upscope $end
$upscope $end
$scope begin REDUCE_LOOP[10] $end
$var parameter 5 d" i $end
$upscope $end
$scope begin REDUCE_LOOP[11] $end
$var parameter 5 e" i $end
$upscope $end
$scope begin REDUCE_LOOP[12] $end
$var parameter 5 f" i $end
$scope begin genblk1 $end
$upscope $end
$upscope $end
$scope begin REDUCE_LOOP[13] $end
$var parameter 5 g" i $end
$upscope $end
$scope begin REDUCE_LOOP[14] $end
$var parameter 5 h" i $end
$upscope $end
$scope begin REDUCE_LOOP[15] $end
$var parameter 5 i" i $end
$scope begin genblk1 $end
$upscope $end
$upscope $end
$scope begin REDUCE_LOOP[16] $end
$var parameter 6 j" i $end
$upscope $end
$scope begin REDUCE_LOOP[17] $end
$var parameter 6 k" i $end
$upscope $end
$scope begin REDUCE_LOOP[18] $end
$var parameter 6 l" i $end
$scope begin genblk1 $end
$upscope $end
$upscope $end
$scope begin REDUCE_LOOP[19] $end
$var parameter 6 m" i $end
$upscope $end
$scope begin REDUCE_LOOP[20] $end
$var parameter 6 n" i $end
$upscope $end
$scope begin REDUCE_LOOP[21] $end
$var parameter 6 o" i $end
$scope begin genblk1 $end
$upscope $end
$upscope $end
$scope begin REDUCE_LOOP[22] $end
$var parameter 6 p" i $end
$upscope $end
$scope begin REDUCE_LOOP[23] $end
$var parameter 6 q" i $end
$upscope $end
$upscope $end
$upscope $end
$upscope $end
$scope begin AND_GEN_LOOP_OUTER[2] $end
$var parameter 3 r" p $end
$scope begin AND_GEN_LOOP_INNER[0] $end
$var parameter 2 s" n $end
$scope module cp $end
$var wire 1 t" cfg_in $end
$var wire 1 u" data_in $end
$var wire 1 v" data_out $end
$var parameter 24 w" OP $end
$scope begin genblk1 $end
$upscope $end
$upscope $end
$upscope $end
$scope begin AND_GEN_LOOP_INNER[1] $end
$var parameter 2 x" n $end
$scope module cp $end
$var wire 1 y" cfg_in $end
$var wire 1 z" data_in $end
$var wire 1 {" data_out $end
$var parameter 24 |" OP $end
$scope begin genblk1 $end
$upscope $end
$upscope $end
$upscope $end
$scope begin AND_GEN_LOOP_INNER[2] $end
$var parameter 3 }" n $end
$scope module cp $end
$var wire 1 ~" cfg_in $end
$var wire 1 !# data_in $end
$var wire 1 "# data_out $end
$var parameter 24 ## OP $end
$scope begin genblk1 $end
$upscope $end
$upscope $end
$upscope $end
$scope begin AND_GEN_LOOP_INNER[3] $end
$var parameter 3 $# n $end
$scope module cp $end
$var wire 1 %# cfg_in $end
$var wire 1 &# data_in $end
$var wire 1 '# data_out $end
$var parameter 24 (# OP $end
$scope begin genblk1 $end
$upscope $end
$upscope $end
$upscope $end
$scope begin AND_GEN_LOOP_INNER[4] $end
$var parameter 4 )# n $end
$scope module cp $end
$var wire 1 *# cfg_in $end
$var wire 1 +# data_in $end
$var wire 1 ,# data_out $end
$var parameter 24 -# OP $end
$scope begin genblk1 $end
$upscope $end
$upscope $end
$upscope $end
$scope begin AND_GEN_LOOP_INNER[5] $end
$var parameter 4 .# n $end
$scope module cp $end
$var wire 1 /# cfg_in $end
$var wire 1 0# data_in $end
$var wire 1 1# data_out $end
$var parameter 24 2# OP $end
$scope begin genblk1 $end
$upscope $end
$upscope $end
$upscope $end
$scope begin AND_GEN_LOOP_INNER[6] $end
$var parameter 4 3# n $end
$scope module cp $end
$var wire 1 4# cfg_in $end
$var wire 1 5# data_in $end
$var wire 1 6# data_out $end
$var parameter 24 7# OP $end
$scope begin genblk1 $end
$upscope $end
$upscope $end
$upscope $end
$scope begin AND_GEN_LOOP_INNER[7] $end
$var parameter 4 8# n $end
$scope module cp $end
$var wire 1 9# cfg_in $end
$var wire 1 :# data_in $end
$var wire 1 ;# data_out $end
$var parameter 24 <# OP $end
$scope begin genblk1 $end
$upscope $end
$upscope $end
$upscope $end
$scope module reduce_and_I $end
$var wire 24 =# data_in [23:0] $end
$var wire 1 ># reduced_out $end
$var wire 8 ?# data_stride [7:0] $end
$var parameter 96 @# LEN $end
$var parameter 24 A# OPERATION $end
$var parameter 32 B# STRIDE $end
$scope begin genblk1 $end
$upscope $end
$scope module stride_I $end
$var wire 24 C# in [23:0] $end
$var wire 8 D# strided_out [7:0] $end
$var parameter 96 E# LEN $end
$var parameter 32 F# STRIDE $end
$scope begin REDUCE_LOOP[0] $end
$var parameter 2 G# i $end
$scope begin genblk1 $end
$upscope $end
$upscope $end
$scope begin REDUCE_LOOP[1] $end
$var parameter 2 H# i $end
$upscope $end
$scope begin REDUCE_LOOP[2] $end
$var parameter 3 I# i $end
$upscope $end
$scope begin REDUCE_LOOP[3] $end
$var parameter 3 J# i $end
$scope begin genblk1 $end
$upscope $end
$upscope $end
$scope begin REDUCE_LOOP[4] $end
$var parameter 4 K# i $end
$upscope $end
$scope begin REDUCE_LOOP[5] $end
$var parameter 4 L# i $end
$upscope $end
$scope begin REDUCE_LOOP[6] $end
$var parameter 4 M# i $end
$scope begin genblk1 $end
$upscope $end
$upscope $end
$scope begin REDUCE_LOOP[7] $end
$var parameter 4 N# i $end
$upscope $end
$scope begin REDUCE_LOOP[8] $end
$var parameter 5 O# i $end
$upscope $end
$scope begin REDUCE_LOOP[9] $end
$var parameter 5 P# i $end
$scope begin genblk1 $end
$upscope $end
$upscope $end
$scope begin REDUCE_LOOP[10] $end
$var parameter 5 Q# i $end
$upscope $end
$scope begin REDUCE_LOOP[11] $end
$var parameter 5 R# i $end
$upscope $end
$scope begin REDUCE_LOOP[12] $end
$var parameter 5 S# i $end
$scope begin genblk1 $end
$upscope $end
$upscope $end
$scope begin REDUCE_LOOP[13] $end
$var parameter 5 T# i $end
$upscope $end
$scope begin REDUCE_LOOP[14] $end
$var parameter 5 U# i $end
$upscope $end
$scope begin REDUCE_LOOP[15] $end
$var parameter 5 V# i $end
$scope begin genblk1 $end
$upscope $end
$upscope $end
$scope begin REDUCE_LOOP[16] $end
$var parameter 6 W# i $end
$upscope $end
$scope begin REDUCE_LOOP[17] $end
$var parameter 6 X# i $end
$upscope $end
$scope begin REDUCE_LOOP[18] $end
$var parameter 6 Y# i $end
$scope begin genblk1 $end
$upscope $end
$upscope $end
$scope begin REDUCE_LOOP[19] $end
$var parameter 6 Z# i $end
$upscope $end
$scope begin REDUCE_LOOP[20] $end
$var parameter 6 [# i $end
$upscope $end
$scope begin REDUCE_LOOP[21] $end
$var parameter 6 \# i $end
$scope begin genblk1 $end
$upscope $end
$upscope $end
$scope begin REDUCE_LOOP[22] $end
$var parameter 6 ]# i $end
$upscope $end
$scope begin REDUCE_LOOP[23] $end
$var parameter 6 ^# i $end
$upscope $end
$upscope $end
$upscope $end
$upscope $end
$scope begin OR_GEN_LOOP_OUTER[0] $end
$var parameter 2 _# m $end
$scope begin OR_GEN_LOOP_INNER[0] $end
$var parameter 2 `# p $end
$scope module cp $end
$var wire 1 a# cfg_in $end
$var wire 1 b# data_in $end
$var wire 1 c# data_out $end
$var parameter 16 d# OP $end
$scope begin genblk1 $end
$upscope $end
$upscope $end
$upscope $end
$scope begin OR_GEN_LOOP_INNER[1] $end
$var parameter 2 e# p $end
$scope module cp $end
$var wire 1 f# cfg_in $end
$var wire 1 g# data_in $end
$var wire 1 h# data_out $end
$var parameter 16 i# OP $end
$scope begin genblk1 $end
$upscope $end
$upscope $end
$upscope $end
$scope begin OR_GEN_LOOP_INNER[2] $end
$var parameter 3 j# p $end
$scope module cp $end
$var wire 1 k# cfg_in $end
$var wire 1 l# data_in $end
$var wire 1 m# data_out $end
$var parameter 16 n# OP $end
$scope begin genblk1 $end
$upscope $end
$upscope $end
$upscope $end
$scope module reduce_and_I $end
$var wire 3 o# data_in [2:0] $end
$var wire 1 " reduced_out $end
$var wire 3 p# data_stride [2:0] $end
$var parameter 64 q# LEN $end
$var parameter 16 r# OPERATION $end
$var parameter 32 s# STRIDE $end
$scope begin genblk1 $end
$upscope $end
$scope module stride_I $end
$var wire 3 t# in [2:0] $end
$var wire 3 u# strided_out [2:0] $end
$var parameter 64 v# LEN $end
$var parameter 32 w# STRIDE $end
$scope begin REDUCE_LOOP[0] $end
$var parameter 2 x# i $end
$scope begin genblk1 $end
$upscope $end
$upscope $end
$scope begin REDUCE_LOOP[1] $end
$var parameter 2 y# i $end
$scope begin genblk1 $end
$upscope $end
$upscope $end
$scope begin REDUCE_LOOP[2] $end
$var parameter 3 z# i $end
$scope begin genblk1 $end
$upscope $end
$upscope $end
$upscope $end
$upscope $end
$upscope $end
$scope begin genblk1[0] $end
$var parameter 2 {# n $end
$upscope $end
$scope begin genblk1[1] $end
$var parameter 2 |# n $end
$upscope $end
$scope begin genblk1[2] $end
$var parameter 3 }# n $end
$upscope $end
$scope begin genblk1[3] $end
$var parameter 3 ~# n $end
$upscope $end
$scope module sr $end
$var wire 1 ) CFG $end
$var wire 1 ' CLK $end
$var parameter 32 !$ LEN $end
$var reg 27 "$ FF_CHAIN [26:0] $end
$upscope $end
$upscope $end
$upscope $end
$enddefinitions $end
$comment Show the parameter values. $end
$dumpall
b11011 !$
b11 ~#
b10 }#
b1 |#
b0 {#
b10 z#
b1 y#
b0 x#
b1 w#
b11 v#
b1 s#
b110111101110010 r#
b11 q#
b110111101110010 n#
b10 j#
b110111101110010 i#
b1 e#
b110111101110010 d#
b0 `#
b0 _#
b10111 ^#
b10110 ]#
b10101 \#
b10100 [#
b10011 Z#
b10010 Y#
b10001 X#
b10000 W#
b1111 V#
b1110 U#
b1101 T#
b1100 S#
b1011 R#
b1010 Q#
b1001 P#
b1000 O#
b111 N#
b110 M#
b101 L#
b100 K#
b11 J#
b10 I#
b1 H#
b0 G#
b11 F#
b11000 E#
b11 B#
b11000010110111001100100 A#
b11000 @#
b11000010110111001100100 <#
b111 8#
b11000010110111001100100 7#
b110 3#
b11000010110111001100100 2#
b101 .#
b11000010110111001100100 -#
b100 )#
b11000010110111001100100 (#
b11 $#
b11000010110111001100100 ##
b10 }"
b11000010110111001100100 |"
b1 x"
b11000010110111001100100 w"
b0 s"
b10 r"
b10111 q"
b10110 p"
b10101 o"
b10100 n"
b10011 m"
b10010 l"
b10001 k"
b10000 j"
b1111 i"
b1110 h"
b1101 g"
b1100 f"
b1011 e"
b1010 d"
b1001 c"
b1000 b"
b111 a"
b110 `"
b101 _"
b100 ^"
b11 ]"
b10 \"
b1 ["
b0 Z"
b11 Y"
b11000 X"
b11 U"
b11000010110111001100100 T"
b11000 S"
b11000010110111001100100 O"
b111 K"
b11000010110111001100100 J"
b110 F"
b11000010110111001100100 E"
b101 A"
b11000010110111001100100 @"
b100 <"
b11000010110111001100100 ;"
b11 7"
b11000010110111001100100 6"
b10 2"
b11000010110111001100100 1"
b1 -"
b11000010110111001100100 ,"
b0 ("
b1 '"
b10111 &"
b10110 %"
b10101 $"
b10100 #"
b10011 ""
b10010 !"
b10001 ~
b10000 }
b1111 |
b1110 {
b1101 z
b1100 y
b1011 x
b1010 w
b1001 v
b1000 u
b111 t
b110 s
b101 r
b100 q
b11 p
b10 o
b1 n
b0 m
b11 l
b11000 k
b11 h
b11000010110111001100100 g
b11000 f
b11000010110111001100100 b
b111 ^
b11000010110111001100100 ]
b110 Y
b11000010110111001100100 X
b101 T
b11000010110111001100100 S
b100 O
b11000010110111001100100 N
b11 J
b11000010110111001100100 I
b10 E
b11000010110111001100100 D
b1 @
b11000010110111001100100 ?
b0 ;
b0 :
b11011 9
b11 8
b100 7
b1 6
b11000 5
b1 &
b11 %
b100 $
b11011 #
$end
#0
$dumpvars
bx "$
bx u#
bx t#
bx p#
bx o#
xm#
xl#
xk#
xh#
xg#
xf#
xc#
xb#
xa#
bx D#
bx C#
bx ?#
x>#
bx =#
x;#
x:#
x9#
x6#
x5#
x4#
x1#
x0#
x/#
x,#
x+#
x*#
x'#
x&#
x%#
x"#
x!#
x~"
x{"
xz"
xy"
xv"
xu"
xt"
bx W"
bx V"
bx R"
xQ"
bx P"
xN"
xM"
xL"
xI"
xH"
xG"
xD"
xC"
xB"
x?"
x>"
x="
x:"
x9"
x8"
x5"
x4"
x3"
x0"
x/"
x."
x+"
x*"
x)"
bx j
bx i
bx e
xd
bx c
xa
x`
x_
x\
x[
xZ
xW
xV
xU
xR
xQ
xP
xM
xL
xK
xH
xG
xF
xC
xB
xA
x>
x=
x<
bx 4
bx 3
bx 2
bx 1
bx 0
bx /
bx .
0-
bx ,
bx +
bx *
x)
0(
0'
x"
b100000100000100000100000100 !
$end
#2
1(
#4
0(
#6
1(
#8
0(
#10
bx1 e
bx1 j
bx1 R"
bx1 W"
bx1 ?#
bx1 D#
bx1 /
bx1 c
bx1 i
bx1 P"
bx1 V"
bx1 =#
bx1 C#
1>
0<
bx0 3
bx0 4
bx0 "$
1(
1-
1'
0)
b0 +
#12
bx11 /
bx11 c
bx11 i
bx11 P"
bx11 V"
bx11 =#
bx11 C#
1+"
0)"
bx00 3
bx00 4
bx00 "$
0(
b1 +
1-
1'
#14
bx e
bx j
bx R"
bx W"
bx ?#
bx D#
1v"
bx11x /
bx11x c
bx11x i
bx11x P"
bx11x V"
bx11x =#
bx11x C#
x>
0t"
1<
bx001 3
bx001 4
bx001 "$
1(
1)
b10 +
1-
1'
#16
bx11 e
bx11 j
bx11 R"
bx11 W"
bx11 ?#
bx11 D#
x+"
1C
bx11x1 /
bx11x1 c
bx11x1 i
bx11x1 P"
bx11x1 V"
bx11x1 =#
bx11x1 C#
1>
1)"
0A
0<
bx0010 3
bx0010 4
bx0010 "$
0(
0)
b11 +
1-
1'
#18
xv"
10"
bx11x11 /
bx11x11 c
bx11x11 i
bx11x11 P"
bx11x11 V"
bx11x11 =#
bx11x11 C#
1+"
1t"
0."
0)"
bx00100 3
bx00100 4
bx00100 "$
1(
b100 +
1-
1'
#20
bx1 e
bx1 j
bx1 R"
bx1 W"
bx1 ?#
bx1 D#
1{"
1v"
bx11x111 /
bx11x111 c
bx11x111 i
bx11x111 P"
bx11x111 V"
bx11x111 =#
bx11x111 C#
xC
0y"
0t"
1A
bx001000 3
bx001000 4
bx001000 "$
0(
b101 +
1-
1'
#22
bx111 e
bx111 j
bx111 R"
bx111 W"
bx111 ?#
bx111 D#
x0"
1H
bx11x1111 /
bx11x1111 c
bx11x1111 i
bx11x1111 P"
bx11x1111 V"
bx11x1111 =#
bx11x1111 C#
1C
1."
0F
0A
bx0010000 3
bx0010000 4
bx0010000 "$
1(
b110 +
1-
1'
#24
x{"
15"
bx11x11111 /
bx11x11111 c
bx11x11111 i
bx11x11111 P"
bx11x11111 V"
bx11x11111 =#
bx11x11111 C#
10"
1y"
03"
0."
bx00100000 3
bx00100000 4
bx00100000 "$
0(
b111 +
1-
1'
#26
bx1x e
bx1x j
bx1x R"
bx1x W"
bx1x ?#
bx1x D#
1"#
1{"
xH
bx11x11111x /
bx11x11111x c
bx11x11111x i
bx11x11111x P"
bx11x11111x V"
bx11x11111x =#
bx11x11111x C#
x>
0~"
0y"
1F
1<
bx001000001 3
bx001000001 4
bx001000001 "$
1(
1)
b1000 +
1-
1'
#28
bx1111 e
bx1111 j
bx1111 R"
bx1111 W"
bx1111 ?#
bx1111 D#
x5"
x+"
1M
1H
bx11x11111x1 /
bx11x11111x1 c
bx11x11111x1 i
bx11x11111x1 P"
bx11x11111x1 V"
bx11x11111x1 =#
bx11x11111x1 C#
1>
13"
1)"
0K
0F
0<
bx0010000010 3
bx0010000010 4
bx0010000010 "$
0(
0)
b1001 +
1-
1'
#30
x"#
xv"
1:"
15"
bx11x11111x11 /
bx11x11111x11 c
bx11x11111x11 i
bx11x11111x11 P"
bx11x11111x11 V"
bx11x11111x11 =#
bx11x11111x11 C#
1+"
1~"
1t"
08"
03"
0)"
bx00100000100 3
bx00100000100 4
bx00100000100 "$
1(
b1010 +
1-
1'
#32
bx1x1 e
bx1x1 j
bx1x1 R"
bx1x1 W"
bx1x1 ?#
bx1x1 D#
1'#
1"#
1v"
xM
bx11x11111x111 /
bx11x11111x111 c
bx11x11111x111 i
bx11x11111x111 P"
bx11x11111x111 V"
bx11x11111x111 =#
bx11x11111x111 C#
xC
0%#
0~"
0t"
1K
1A
bx001000001000 3
bx001000001000 4
bx001000001000 "$
0(
b1011 +
1-
1'
#34
bx11111 e
bx11111 j
bx11111 R"
bx11111 W"
bx11111 ?#
bx11111 D#
x:"
x0"
1R
1M
bx11x11111x1111 /
bx11x11111x1111 c
bx11x11111x1111 i
bx11x11111x1111 P"
bx11x11111x1111 V"
bx11x11111x1111 =#
bx11x11111x1111 C#
1C
18"
1."
0P
0K
0A
bx0010000010000 3
bx0010000010000 4
bx0010000010000 "$
1(
b1100 +
1-
1'
#36
x'#
x{"
1?"
1:"
bx11x11111x11111 /
bx11x11111x11111 c
bx11x11111x11111 i
bx11x11111x11111 P"
bx11x11111x11111 V"
bx11x11111x11111 =#
bx11x11111x11111 C#
10"
1%#
1y"
0="
08"
0."
bx00100000100000 3
bx00100000100000 4
bx00100000100000 "$
0(
b1101 +
1-
1'
#38
bx1x1x e
bx1x1x j
bx1x1x R"
bx1x1x W"
bx1x1x ?#
bx1x1x D#
1,#
1'#
1{"
xR
xH
bx11x11111x11111x /
bx11x11111x11111x c
bx11x11111x11111x i
bx11x11111x11111x P"
bx11x11111x11111x V"
bx11x11111x11111x =#
bx11x11111x11111x C#
x>
0*#
0%#
0y"
1P
1F
1<
bx001000001000001 3
bx001000001000001 4
bx001000001000001 "$
1(
1)
b1110 +
1-
1'
#40
bx111111 e
bx111111 j
bx111111 R"
bx111111 W"
bx111111 ?#
bx111111 D#
x?"
x5"
x+"
1W
1R
1H
bx11x11111x11111x1 /
bx11x11111x11111x1 c
bx11x11111x11111x1 i
bx11x11111x11111x1 P"
bx11x11111x11111x1 V"
bx11x11111x11111x1 =#
bx11x11111x11111x1 C#
1>
1="
13"
1)"
0U
0P
0F
0<
bx0010000010000010 3
bx0010000010000010 4
bx0010000010000010 "$
0(
0)
b1111 +
1-
1'
#42
x,#
x"#
xv"
1D"
1?"
15"
bx11x11111x11111x11 /
bx11x11111x11111x11 c
bx11x11111x11111x11 i
bx11x11111x11111x11 P"
bx11x11111x11111x11 V"
bx11x11111x11111x11 =#
bx11x11111x11111x11 C#
1+"
1*#
1~"
1t"
0B"
0="
03"
0)"
bx00100000100000100 3
bx00100000100000100 4
bx00100000100000100 "$
1(
b10000 +
1-
1'
#44
bx1x1x1 e
bx1x1x1 j
bx1x1x1 R"
bx1x1x1 W"
bx1x1x1 ?#
bx1x1x1 D#
11#
1,#
1"#
1v"
xW
xM
bx11x11111x11111x111 /
bx11x11111x11111x111 c
bx11x11111x11111x111 i
bx11x11111x11111x111 P"
bx11x11111x11111x111 V"
bx11x11111x11111x111 =#
bx11x11111x11111x111 C#
xC
0/#
0*#
0~"
0t"
1U
1K
1A
bx001000001000001000 3
bx001000001000001000 4
bx001000001000001000 "$
0(
b10001 +
1-
1'
#46
bx1111111 e
bx1111111 j
bx1111111 R"
bx1111111 W"
bx1111111 ?#
bx1111111 D#
xD"
x:"
x0"
1\
1W
1M
bx11x11111x11111x1111 /
bx11x11111x11111x1111 c
bx11x11111x11111x1111 i
bx11x11111x11111x1111 P"
bx11x11111x11111x1111 V"
bx11x11111x11111x1111 =#
bx11x11111x11111x1111 C#
1C
1B"
18"
1."
0Z
0U
0K
0A
bx0010000010000010000 3
bx0010000010000010000 4
bx0010000010000010000 "$
1(
b10010 +
1-
1'
